{"uuid":"27a7ef57-3233-49c2-aae6-56023274044e","name":"admin applications endpoint can serve application reports","historyId":"9b63fa8714e19fea570fa8be6934ef03:259864bbb84e0941359ea9e4c0db04ac","status":"passed","statusDetails":{},"stage":"finished","steps":[{"status":"passed","statusDetails":{},"stage":"finished","steps":[{"status":"passed","statusDetails":{},"stage":"finished","steps":[{"status":"passed","statusDetails":{},"stage":"finished","steps":[],"attachments":[],"parameters":[],"name":"Create request context","start":1778060523809,"uuid":"4c627670-636b-4cde-a27c-aed8ef1a9f8d","stop":1778060523811}],"attachments":[],"parameters":[],"name":"Fixture \"apiClient\"","start":1778060523808,"uuid":"6db88d0f-0b4f-4a03-97db-2be443deff8f","stop":1778060523815},{"status":"passed","statusDetails":{},"stage":"finished","steps":[],"attachments":[],"parameters":[],"name":"Fixture \"adminApi\"","start":1778060523816,"uuid":"97a38865-7d9b-4822-aceb-cf62a72f7cea","stop":1778060523816},{"status":"passed","statusDetails":{},"stage":"finished","steps":[],"attachments":[],"parameters":[],"name":"Fixture \"authApi\"","start":1778060523816,"uuid":"57d3973f-8aa3-48a3-9799-5c3585993e0c","stop":1778060523816},{"status":"passed","statusDetails":{},"stage":"finished","steps":[{"status":"passed","statusDetails":{},"stage":"finished","steps":[],"attachments":[],"parameters":[],"name":"POST \"auth/login\"","start":1778060523820,"uuid":"39a72c85-9692-4bad-a032-e22f869371db","stop":1778060523885},{"status":"passed","statusDetails":{},"stage":"finished","steps":[],"attachments":[],"parameters":[],"name":"{\"success\":true,\"message\":\"Login successful\",\"user\":{\"id\":\"0\",\"name\":\"TrueHire Admin\",\"email\":\"admin@truehire.com\",\"role\":\"admin\"},\"token\":\"eyJhbGciOiJIUzI1NiIsInR5cCI6IkpXVCJ9.eyJ1c2VySWQiOiIwIiwic3ViIjoiMCIsImlkIjoiMCIsImVtYWlsIjoiYWRtaW5AdHJ1ZWhpcmUuY29tIiwicm9sZSI6IkFETUlOIiwiaWF0IjoxNzc4MDYwNTIzLCJleHAiOjE3Nzg2NjUzMjN9.ooWKLOQCBEG5aYABndZzRcJBhxdfSz8vx7puMPyFKLY\"}","start":1778060523888,"uuid":"1c77497b-c019-4168-b4d1-b0c4da4738af","stop":1778060523888},{"status":"passed","statusDetails":{},"stage":"finished","steps":[],"attachments":[],"parameters":[],"name":"No JWT token returned for admin login","start":1778060523890,"uuid":"a12ab743-08e6-4f96-8df6-8f1420c414f8","stop":1778060523890}],"attachments":[],"parameters":[],"name":"Fixture \"adminToken\"","start":1778060523817,"uuid":"9ee9fee1-d0bf-4731-8aa5-2d8b2d848a46","stop":1778060523890}],"attachments":[],"parameters":[],"name":"Before Hooks","start":1778060523798,"uuid":"2f06153d-df3e-4634-9889-b27c93eb569e","stop":1778060523891},{"status":"passed","statusDetails":{},"stage":"finished","steps":[],"attachments":[],"parameters":[],"start":1778060523893,"name":"GET \"admin/applications?page=1&limit=10\"","uuid":"37e4c83a-418e-4365-9fb2-2ae0e76c0d9f","stop":1778060524001},{"status":"passed","statusDetails":{},"stage":"finished","steps":[],"attachments":[],"parameters":[],"start":1778060524003,"name":"{\"success\":true,\"applications\":[{\"id\":\"18\",\"user_id\":\"4\",\"job_id\":\"49\",\"status\":\"applied\",\"applied_at\":\"2026-05-06T09:14:34.000Z\",\"updated_at\":\"2026-05-06T09:14:34.000Z\",\"users\":{\"name\":\"QA Candidate\",\"email\":\"qa.candidate@truehire.com\"},\"jobs\":{\"title\":\"QA Automation Engineer w5mn09\",\"company\":\"TrueHire QA Labs\",\"recruiters\":{\"name\":\"QA Recruiter\"}},\"job_title\":\"QA Automation Engineer w5mn09\",\"company\":\"TrueHire QA Labs\",\"user_name\":\"QA Candidate\",\"user_email\":\"qa.candidate@truehire.com\",\"recruiter_name\":\"QA Recruiter\"},{\"id\":\"19\",\"user_id\":\"4\",\"job_id\":\"50\",\"status\":\"applied\",\"applied_at\":\"2026-05-06T09:14:34.000Z\",\"updated_at\":\"2026-05-06T09:14:34.000Z\",\"users\":{\"name\":\"QA Candidate\",\"email\":\"qa.candidate@truehire.com\"},\"jobs\":{\"title\":\"QA Automation Engineer 1pasbt\",\"company\":\"TrueHire QA Labs\",\"recruiters\":{\"name\":\"QA Recruiter\"}},\"job_title\":\"QA Automation Engineer 1pasbt\",\"company\":\"TrueHire QA Labs\",\"user_name\":\"QA Candidate\",\"user_email\":\"qa.candidate@truehire.com\",\"recruiter_name\":\"QA Recruiter\"},{\"id\":\"16\",\"user_id\":\"4\",\"job_id\":\"39\",\"status\":\"applied\",\"applied_at\":\"2026-05-06T09:14:26.000Z\",\"updated_at\":\"2026-05-06T09:14:26.000Z\",\"users\":{\"name\":\"QA Candidate\",\"email\":\"qa.candidate@truehire.com\"},\"jobs\":{\"title\":\"QA Automation Engineer 3k36p7\",\"company\":\"TrueHire QA Labs\",\"recruiters\":{\"name\":\"QA Recruiter\"}},\"job_title\":\"QA Automation Engineer 3k36p7\",\"company\":\"TrueHire QA Labs\",\"user_name\":\"QA Candidate\",\"user_email\":\"qa.candidate@truehire.com\",\"recruiter_name\":\"QA Recruiter\"},{\"id\":\"17\",\"user_id\":\"4\",\"job_id\":\"42\",\"status\":\"applied\",\"applied_at\":\"2026-05-06T09:14:26.000Z\",\"updated_at\":\"2026-05-06T09:14:26.000Z\",\"users\":{\"name\":\"QA Candidate\",\"email\":\"qa.candidate@truehire.com\"},\"jobs\":{\"title\":\"QA Automation Engineer 77um56\",\"company\":\"TrueHire QA Labs\",\"recruiters\":{\"name\":\"QA Recruiter\"}},\"job_title\":\"QA Automation Engineer 77um56\",\"company\":\"TrueHire QA Labs\",\"user_name\":\"QA Candidate\",\"user_email\":\"qa.candidate@truehire.com\",\"recruiter_name\":\"QA Recruiter\"},{\"id\":\"14\",\"user_id\":\"4\",\"job_id\":\"30\",\"status\":\"applied\",\"applied_at\":\"2026-05-06T09:09:37.000Z\",\"updated_at\":\"2026-05-06T09:09:37.000Z\",\"users\":{\"name\":\"QA Candidate\",\"email\":\"qa.candidate@truehire.com\"},\"jobs\":{\"title\":\"QA Automation Engineer gnoefi\",\"company\":\"TrueHire QA Labs\",\"recruiters\":{\"name\":\"QA Recruiter\"}},\"job_title\":\"QA Automation Engineer gnoefi\",\"company\":\"TrueHire QA Labs\",\"user_name\":\"QA Candidate\",\"user_email\":\"qa.candidate@truehire.com\",\"recruiter_name\":\"QA Recruiter\"},{\"id\":\"15\",\"user_id\":\"4\",\"job_id\":\"33\",\"status\":\"applied\",\"applied_at\":\"2026-05-06T09:09:37.000Z\",\"updated_at\":\"2026-05-06T09:09:37.000Z\",\"users\":{\"name\":\"QA Candidate\",\"email\":\"qa.candidate@truehire.com\"},\"jobs\":{\"title\":\"QA Automation Engineer 3c82wc\",\"company\":\"TrueHire QA Labs\",\"recruiters\":{\"name\":\"QA Recruiter\"}},\"job_title\":\"QA Automation Engineer 3c82wc\",\"company\":\"TrueHire QA Labs\",\"user_name\":\"QA Candidate\",\"user_email\":\"qa.candidate@truehire.com\",\"recruiter_name\":\"QA Recruiter\"},{\"id\":\"12\",\"user_id\":\"4\",\"job_id\":\"22\",\"status\":\"applied\",\"applied_at\":\"2026-05-06T09:07:25.000Z\",\"updated_at\":\"2026-05-06T09:07:25.000Z\",\"users\":{\"name\":\"QA Candidate\",\"email\":\"qa.candidate@truehire.com\"},\"jobs\":{\"title\":\"QA Automation Engineer ax71rm\",\"company\":\"TrueHire QA Labs\",\"recruiters\":{\"name\":\"QA Recruiter\"}},\"job_title\":\"QA Automation Engineer ax71rm\",\"company\":\"TrueHire QA Labs\",\"user_name\":\"QA Candidate\",\"user_email\":\"qa.candidate@truehire.com\",\"recruiter_name\":\"QA Recruiter\"},{\"id\":\"13\",\"user_id\":\"4\",\"job_id\":\"24\",\"status\":\"applied\",\"applied_at\":\"2026-05-06T09:07:25.000Z\",\"updated_at\":\"2026-05-06T09:07:25.000Z\",\"users\":{\"name\":\"QA Candidate\",\"email\":\"qa.candidate@truehire.com\"},\"jobs\":{\"title\":\"QA Automation Engineer 2a0kc5\",\"company\":\"TrueHire QA Labs\",\"recruiters\":{\"name\":\"QA Recruiter\"}},\"job_title\":\"QA Automation Engineer 2a0kc5\",\"company\":\"TrueHire QA Labs\",\"user_name\":\"QA Candidate\",\"user_email\":\"qa.candidate@truehire.com\",\"recruiter_name\":\"QA Recruiter\"},{\"id\":\"10\",\"user_id\":\"4\",\"job_id\":\"14\",\"status\":\"applied\",\"applied_at\":\"2026-05-06T09:05:54.000Z\",\"updated_at\":\"2026-05-06T09:05:54.000Z\",\"users\":{\"name\":\"QA Candidate\",\"email\":\"qa.candidate@truehire.com\"},\"jobs\":{\"title\":\"QA Automation Engineer 0ul9jb\",\"company\":\"TrueHire QA Labs\",\"recruiters\":{\"name\":\"QA Recruiter\"}},\"job_title\":\"QA Automation Engineer 0ul9jb\",\"company\":\"TrueHire QA Labs\",\"user_name\":\"QA Candidate\",\"user_email\":\"qa.candidate@truehire.com\",\"recruiter_name\":\"QA Recruiter\"},{\"id\":\"11\",\"user_id\":\"4\",\"job_id\":\"15\",\"status\":\"applied\",\"applied_at\":\"2026-05-06T09:05:54.000Z\",\"updated_at\":\"2026-05-06T09:05:54.000Z\",\"users\":{\"name\":\"QA Candidate\",\"email\":\"qa.candidate@truehire.com\"},\"jobs\":{\"title\":\"QA Automation Engineer m82oc6\",\"company\":\"TrueHire QA Labs\",\"recruiters\":{\"name\":\"QA Recruiter\"}},\"job_title\":\"QA Automation Engineer m82oc6\",\"company\":\"TrueHire QA Labs\",\"user_name\":\"QA Candidate\",\"user_email\":\"qa.candidate@truehire.com\",\"recruiter_name\":\"QA Recruiter\"}],\"pagination\":{\"page\":1,\"limit\":10,\"total\":11,\"pages\":2}}","uuid":"1d5d3497-a5b7-4555-9886-2270d4ba83f3","stop":1778060524004},{"status":"passed","statusDetails":{},"stage":"finished","steps":[],"attachments":[],"parameters":[],"start":1778060524007,"name":"{\"success\":true,\"applications\":[{\"id\":\"18\",\"user_id\":\"4\",\"job_id\":\"49\",\"status\":\"applied\",\"applied_at\":\"2026-05-06T09:14:34.000Z\",\"updated_at\":\"2026-05-06T09:14:34.000Z\",\"users\":{\"name\":\"QA Candidate\",\"email\":\"qa.candidate@truehire.com\"},\"jobs\":{\"title\":\"QA Automation Engineer w5mn09\",\"company\":\"TrueHire QA Labs\",\"recruiters\":{\"name\":\"QA Recruiter\"}},\"job_title\":\"QA Automation Engineer w5mn09\",\"company\":\"TrueHire QA Labs\",\"user_name\":\"QA Candidate\",\"user_email\":\"qa.candidate@truehire.com\",\"recruiter_name\":\"QA Recruiter\"},{\"id\":\"19\",\"user_id\":\"4\",\"job_id\":\"50\",\"status\":\"applied\",\"applied_at\":\"2026-05-06T09:14:34.000Z\",\"updated_at\":\"2026-05-06T09:14:34.000Z\",\"users\":{\"name\":\"QA Candidate\",\"email\":\"qa.candidate@truehire.com\"},\"jobs\":{\"title\":\"QA Automation Engineer 1pasbt\",\"company\":\"TrueHire QA Labs\",\"recruiters\":{\"name\":\"QA Recruiter\"}},\"job_title\":\"QA Automation Engineer 1pasbt\",\"company\":\"TrueHire QA Labs\",\"user_name\":\"QA Candidate\",\"user_email\":\"qa.candidate@truehire.com\",\"recruiter_name\":\"QA Recruiter\"},{\"id\":\"16\",\"user_id\":\"4\",\"job_id\":\"39\",\"status\":\"applied\",\"applied_at\":\"2026-05-06T09:14:26.000Z\",\"updated_at\":\"2026-05-06T09:14:26.000Z\",\"users\":{\"name\":\"QA Candidate\",\"email\":\"qa.candidate@truehire.com\"},\"jobs\":{\"title\":\"QA Automation Engineer 3k36p7\",\"company\":\"TrueHire QA Labs\",\"recruiters\":{\"name\":\"QA Recruiter\"}},\"job_title\":\"QA Automation Engineer 3k36p7\",\"company\":\"TrueHire QA Labs\",\"user_name\":\"QA Candidate\",\"user_email\":\"qa.candidate@truehire.com\",\"recruiter_name\":\"QA Recruiter\"},{\"id\":\"17\",\"user_id\":\"4\",\"job_id\":\"42\",\"status\":\"applied\",\"applied_at\":\"2026-05-06T09:14:26.000Z\",\"updated_at\":\"2026-05-06T09:14:26.000Z\",\"users\":{\"name\":\"QA Candidate\",\"email\":\"qa.candidate@truehire.com\"},\"jobs\":{\"title\":\"QA Automation Engineer 77um56\",\"company\":\"TrueHire QA Labs\",\"recruiters\":{\"name\":\"QA Recruiter\"}},\"job_title\":\"QA Automation Engineer 77um56\",\"company\":\"TrueHire QA Labs\",\"user_name\":\"QA Candidate\",\"user_email\":\"qa.candidate@truehire.com\",\"recruiter_name\":\"QA Recruiter\"},{\"id\":\"14\",\"user_id\":\"4\",\"job_id\":\"30\",\"status\":\"applied\",\"applied_at\":\"2026-05-06T09:09:37.000Z\",\"updated_at\":\"2026-05-06T09:09:37.000Z\",\"users\":{\"name\":\"QA Candidate\",\"email\":\"qa.candidate@truehire.com\"},\"jobs\":{\"title\":\"QA Automation Engineer gnoefi\",\"company\":\"TrueHire QA Labs\",\"recruiters\":{\"name\":\"QA Recruiter\"}},\"job_title\":\"QA Automation Engineer gnoefi\",\"company\":\"TrueHire QA Labs\",\"user_name\":\"QA Candidate\",\"user_email\":\"qa.candidate@truehire.com\",\"recruiter_name\":\"QA Recruiter\"},{\"id\":\"15\",\"user_id\":\"4\",\"job_id\":\"33\",\"status\":\"applied\",\"applied_at\":\"2026-05-06T09:09:37.000Z\",\"updated_at\":\"2026-05-06T09:09:37.000Z\",\"users\":{\"name\":\"QA Candidate\",\"email\":\"qa.candidate@truehire.com\"},\"jobs\":{\"title\":\"QA Automation Engineer 3c82wc\",\"company\":\"TrueHire QA Labs\",\"recruiters\":{\"name\":\"QA Recruiter\"}},\"job_title\":\"QA Automation Engineer 3c82wc\",\"company\":\"TrueHire QA Labs\",\"user_name\":\"QA Candidate\",\"user_email\":\"qa.candidate@truehire.com\",\"recruiter_name\":\"QA Recruiter\"},{\"id\":\"12\",\"user_id\":\"4\",\"job_id\":\"22\",\"status\":\"applied\",\"applied_at\":\"2026-05-06T09:07:25.000Z\",\"updated_at\":\"2026-05-06T09:07:25.000Z\",\"users\":{\"name\":\"QA Candidate\",\"email\":\"qa.candidate@truehire.com\"},\"jobs\":{\"title\":\"QA Automation Engineer ax71rm\",\"company\":\"TrueHire QA Labs\",\"recruiters\":{\"name\":\"QA Recruiter\"}},\"job_title\":\"QA Automation Engineer ax71rm\",\"company\":\"TrueHire QA Labs\",\"user_name\":\"QA Candidate\",\"user_email\":\"qa.candidate@truehire.com\",\"recruiter_name\":\"QA Recruiter\"},{\"id\":\"13\",\"user_id\":\"4\",\"job_id\":\"24\",\"status\":\"applied\",\"applied_at\":\"2026-05-06T09:07:25.000Z\",\"updated_at\":\"2026-05-06T09:07:25.000Z\",\"users\":{\"name\":\"QA Candidate\",\"email\":\"qa.candidate@truehire.com\"},\"jobs\":{\"title\":\"QA Automation Engineer 2a0kc5\",\"company\":\"TrueHire QA Labs\",\"recruiters\":{\"name\":\"QA Recruiter\"}},\"job_title\":\"QA Automation Engineer 2a0kc5\",\"company\":\"TrueHire QA Labs\",\"user_name\":\"QA Candidate\",\"user_email\":\"qa.candidate@truehire.com\",\"recruiter_name\":\"QA Recruiter\"},{\"id\":\"10\",\"user_id\":\"4\",\"job_id\":\"14\",\"status\":\"applied\",\"applied_at\":\"2026-05-06T09:05:54.000Z\",\"updated_at\":\"2026-05-06T09:05:54.000Z\",\"users\":{\"name\":\"QA Candidate\",\"email\":\"qa.candidate@truehire.com\"},\"jobs\":{\"title\":\"QA Automation Engineer 0ul9jb\",\"company\":\"TrueHire QA Labs\",\"recruiters\":{\"name\":\"QA Recruiter\"}},\"job_title\":\"QA Automation Engineer 0ul9jb\",\"company\":\"TrueHire QA Labs\",\"user_name\":\"QA Candidate\",\"user_email\":\"qa.candidate@truehire.com\",\"recruiter_name\":\"QA Recruiter\"},{\"id\":\"11\",\"user_id\":\"4\",\"job_id\":\"15\",\"status\":\"applied\",\"applied_at\":\"2026-05-06T09:05:54.000Z\",\"updated_at\":\"2026-05-06T09:05:54.000Z\",\"users\":{\"name\":\"QA Candidate\",\"email\":\"qa.candidate@truehire.com\"},\"jobs\":{\"title\":\"QA Automation Engineer m82oc6\",\"company\":\"TrueHire QA Labs\",\"recruiters\":{\"name\":\"QA Recruiter\"}},\"job_title\":\"QA Automation Engineer m82oc6\",\"company\":\"TrueHire QA Labs\",\"user_name\":\"QA Candidate\",\"user_email\":\"qa.candidate@truehire.com\",\"recruiter_name\":\"QA Recruiter\"}],\"pagination\":{\"page\":1,\"limit\":10,\"total\":11,\"pages\":2}}","uuid":"550f4108-dc77-4c93-9b6d-52a750677b5a","stop":1778060524005},{"status":"passed","statusDetails":{},"stage":"finished","steps":[],"attachments":[],"parameters":[],"start":1778060524010,"name":"Expect \"toEqual\"","uuid":"509a8109-25f9-4e3d-a1c9-4f9dd43388bd","stop":1778060524008},{"status":"passed","statusDetails":{},"stage":"finished","steps":[],"attachments":[],"parameters":[],"start":1778060524012,"name":"Expect \"toBeTruthy\"","uuid":"97b2869b-42c7-4a89-b8dd-905d82571e0d","stop":1778060524010},{"status":"passed","statusDetails":{},"stage":"finished","steps":[],"attachments":[],"parameters":[],"start":1778060524013,"name":"Expect \"toBeTruthy\"","uuid":"3b95cf8f-e7b1-4052-8765-aa7475d4f127","stop":1778060524011},{"status":"passed","statusDetails":{},"stage":"finished","steps":[{"status":"passed","statusDetails":{},"stage":"finished","steps":[],"attachments":[],"parameters":[],"name":"Fixture \"adminToken\"","start":1778060524014,"uuid":"ff3cdaba-9cec-4cac-a8d8-09e793884cb1","stop":1778060524015},{"status":"passed","statusDetails":{},"stage":"finished","steps":[],"attachments":[],"parameters":[],"name":"Fixture \"authApi\"","start":1778060524015,"uuid":"06a3b36a-4486-4023-a78f-75d27bf4aa49","stop":1778060524015},{"status":"passed","statusDetails":{},"stage":"finished","steps":[],"attachments":[],"parameters":[],"name":"Fixture \"adminApi\"","start":1778060524016,"uuid":"612ae51a-1a3d-455a-a58b-5e0d197db5f2","stop":1778060524016},{"status":"passed","statusDetails":{},"stage":"finished","steps":[],"attachments":[],"parameters":[],"name":"Fixture \"apiClient\"","start":1778060524016,"uuid":"8526b707-7404-4d34-aaf1-cdb93e9d6287","stop":1778060524026}],"attachments":[],"parameters":[],"name":"After Hooks","start":1778060524014,"uuid":"b5699b3e-5e68-4aab-9f4b-07ab2cf10064","stop":1778060524041}],"attachments":[],"parameters":[{"name":"Project","value":"api"}],"labels":[{"name":"language","value":"javascript"},{"name":"framework","value":"playwright"},{"name":"package","value":"api.admin-advanced.api.spec.js"},{"name":"titlePath","value":" > api > api\\admin-advanced.api.spec.js > Admin API Advanced Coverage"},{"name":"host","value":"DESKTOP-RH0M79P"},{"name":"thread","value":"pid-2524-worker-3"},{"name":"parentSuite","value":"api"},{"name":"suite","value":"api\\admin-advanced.api.spec.js"},{"name":"subSuite","value":"Admin API Advanced Coverage"}],"links":[],"start":1778060523815,"testCaseId":"9b63fa8714e19fea570fa8be6934ef03","fullName":"api/admin-advanced.api.spec.js:39:3","titlePath":["api","admin-advanced.api.spec.js","Admin API Advanced Coverage"],"stop":1778060524031}