{"uuid":"5d0392da-fbe4-4828-be7a-956917e9a6e6","name":"admin jobs endpoint can serve report-style data","historyId":"fd90fa2e28232a1abb94df3c773745b8:259864bbb84e0941359ea9e4c0db04ac","status":"passed","statusDetails":{},"stage":"finished","steps":[{"status":"passed","statusDetails":{},"stage":"finished","steps":[{"status":"passed","statusDetails":{},"stage":"finished","steps":[{"status":"passed","statusDetails":{},"stage":"finished","steps":[],"attachments":[],"parameters":[],"name":"Create request context","start":1778060579454,"uuid":"eb4d7ab6-96cd-4e8b-b6f6-ce9e19a61ef3","stop":1778060579460}],"attachments":[],"parameters":[],"name":"Fixture \"apiClient\"","start":1778060579450,"uuid":"2c508c16-4613-4a34-b491-57bc1c190df7","stop":1778060579466},{"status":"passed","statusDetails":{},"stage":"finished","steps":[],"attachments":[],"parameters":[],"name":"Fixture \"adminApi\"","start":1778060579469,"uuid":"b5b3403a-4694-4fee-8ec8-a9fb3d2eae42","stop":1778060579469},{"status":"passed","statusDetails":{},"stage":"finished","steps":[],"attachments":[],"parameters":[],"name":"Fixture \"authApi\"","start":1778060579470,"uuid":"c9cd2b8d-29f7-469e-af39-f8415248dad9","stop":1778060579470},{"status":"passed","statusDetails":{},"stage":"finished","steps":[{"status":"passed","statusDetails":{},"stage":"finished","steps":[],"attachments":[],"parameters":[],"name":"POST \"auth/login\"","start":1778060579478,"uuid":"ce9c2102-c93f-44b0-8026-a893ac4857d6","stop":1778060579546},{"status":"passed","statusDetails":{},"stage":"finished","steps":[],"attachments":[],"parameters":[],"name":"{\"success\":true,\"message\":\"Login successful\",\"user\":{\"id\":\"0\",\"name\":\"TrueHire Admin\",\"email\":\"admin@truehire.com\",\"role\":\"admin\"},\"token\":\"eyJhbGciOiJIUzI1NiIsInR5cCI6IkpXVCJ9.eyJ1c2VySWQiOiIwIiwic3ViIjoiMCIsImlkIjoiMCIsImVtYWlsIjoiYWRtaW5AdHJ1ZWhpcmUuY29tIiwicm9sZSI6IkFETUlOIiwiaWF0IjoxNzc4MDYwNTc5LCJleHAiOjE3Nzg2NjUzNzl9.KaIAWXqpaQNQ-44gCUiKsM8NLu-C39DWKQpRg0dRmz0\"}","start":1778060579550,"uuid":"f9325439-5165-4f41-9f93-c34541aaa0e2","stop":1778060579552},{"status":"passed","statusDetails":{},"stage":"finished","steps":[],"attachments":[],"parameters":[],"name":"No JWT token returned for admin login","start":1778060579554,"uuid":"6609a6ad-2eaa-40fe-82c8-0f1f7815aeb8","stop":1778060579555}],"attachments":[],"parameters":[],"name":"Fixture \"adminToken\"","start":1778060579470,"uuid":"7d61b643-fa6b-4cc3-a3db-8f5a25ac8768","stop":1778060579555}],"attachments":[],"parameters":[],"name":"Before Hooks","start":1778060579429,"uuid":"23446344-22c7-48ea-b1fc-d08d62c67b3e","stop":1778060579555},{"status":"passed","statusDetails":{},"stage":"finished","steps":[],"attachments":[],"parameters":[],"start":1778060579558,"name":"GET \"admin/jobs?page=1&limit=10&status=OPEN\"","uuid":"07f3e697-224d-482c-895f-58a5f9645877","stop":1778060579620},{"status":"passed","statusDetails":{},"stage":"finished","steps":[],"attachments":[],"parameters":[],"start":1778060579625,"name":"{\"success\":true,\"jobs\":[{\"id\":\"56\",\"title\":\"QA Automation Engineer hh7f0e\",\"company\":\"TrueHire QA Labs\",\"location\":\"Bengaluru\",\"status\":\"open\",\"employment_type\":\"FULL_TIME\",\"created_at\":\"2026-05-06T09:42:05.000Z\",\"recruiter_id\":\"6\",\"applications_count\":0},{\"id\":\"57\",\"title\":\"QA Automation Engineer 7jam8b\",\"company\":\"TrueHire QA Labs\",\"location\":\"Bengaluru\",\"status\":\"open\",\"employment_type\":\"FULL_TIME\",\"created_at\":\"2026-05-06T09:42:05.000Z\",\"recruiter_id\":\"6\",\"applications_count\":1},{\"id\":\"58\",\"title\":\"QA Automation Engineer wg2s4z\",\"company\":\"TrueHire QA Labs\",\"location\":\"Bengaluru\",\"status\":\"open\",\"employment_type\":\"FULL_TIME\",\"created_at\":\"2026-05-06T09:42:05.000Z\",\"recruiter_id\":\"6\",\"applications_count\":1},{\"id\":\"59\",\"title\":\"QA Automation Engineer wcw81v\",\"company\":\"TrueHire QA Labs\",\"location\":\"Bengaluru\",\"status\":\"open\",\"employment_type\":\"FULL_TIME\",\"created_at\":\"2026-05-06T09:42:05.000Z\",\"recruiter_id\":\"6\",\"applications_count\":0},{\"id\":\"48\",\"title\":\"QA Automation Engineer b8uetg\",\"company\":\"TrueHire QA Labs\",\"location\":\"Bengaluru\",\"status\":\"open\",\"employment_type\":\"FULL_TIME\",\"created_at\":\"2026-05-06T09:14:34.000Z\",\"recruiter_id\":\"6\",\"applications_count\":0},{\"id\":\"49\",\"title\":\"QA Automation Engineer w5mn09\",\"company\":\"TrueHire QA Labs\",\"location\":\"Bengaluru\",\"status\":\"open\",\"employment_type\":\"FULL_TIME\",\"created_at\":\"2026-05-06T09:14:34.000Z\",\"recruiter_id\":\"6\",\"applications_count\":1},{\"id\":\"50\",\"title\":\"QA Automation Engineer 1pasbt\",\"company\":\"TrueHire QA Labs\",\"location\":\"Bengaluru\",\"status\":\"open\",\"employment_type\":\"FULL_TIME\",\"created_at\":\"2026-05-06T09:14:34.000Z\",\"recruiter_id\":\"6\",\"applications_count\":1},{\"id\":\"51\",\"title\":\"QA Automation Engineer r3p770\",\"company\":\"TrueHire QA Labs\",\"location\":\"Bengaluru\",\"status\":\"open\",\"employment_type\":\"FULL_TIME\",\"created_at\":\"2026-05-06T09:14:34.000Z\",\"recruiter_id\":\"6\",\"applications_count\":0},{\"id\":\"39\",\"title\":\"QA Automation Engineer 3k36p7\",\"company\":\"TrueHire QA Labs\",\"location\":\"Bengaluru\",\"status\":\"open\",\"employment_type\":\"FULL_TIME\",\"created_at\":\"2026-05-06T09:14:26.000Z\",\"recruiter_id\":\"6\",\"applications_count\":1},{\"id\":\"40\",\"title\":\"QA Automation Engineer h2bne9\",\"company\":\"TrueHire QA Labs\",\"location\":\"Bengaluru\",\"status\":\"open\",\"employment_type\":\"FULL_TIME\",\"created_at\":\"2026-05-06T09:14:26.000Z\",\"recruiter_id\":\"6\",\"applications_count\":0}],\"pagination\":{\"page\":1,\"limit\":10,\"total\":30,\"pages\":3}}","uuid":"dd0d5ce1-6cf8-44eb-a188-5ac42069e5ea","stop":1778060579630},{"status":"passed","statusDetails":{},"stage":"finished","steps":[],"attachments":[],"parameters":[],"start":1778060579628,"name":"{\"success\":true,\"jobs\":[{\"id\":\"56\",\"title\":\"QA Automation Engineer hh7f0e\",\"company\":\"TrueHire QA Labs\",\"location\":\"Bengaluru\",\"status\":\"open\",\"employment_type\":\"FULL_TIME\",\"created_at\":\"2026-05-06T09:42:05.000Z\",\"recruiter_id\":\"6\",\"applications_count\":0},{\"id\":\"57\",\"title\":\"QA Automation Engineer 7jam8b\",\"company\":\"TrueHire QA Labs\",\"location\":\"Bengaluru\",\"status\":\"open\",\"employment_type\":\"FULL_TIME\",\"created_at\":\"2026-05-06T09:42:05.000Z\",\"recruiter_id\":\"6\",\"applications_count\":1},{\"id\":\"58\",\"title\":\"QA Automation Engineer wg2s4z\",\"company\":\"TrueHire QA Labs\",\"location\":\"Bengaluru\",\"status\":\"open\",\"employment_type\":\"FULL_TIME\",\"created_at\":\"2026-05-06T09:42:05.000Z\",\"recruiter_id\":\"6\",\"applications_count\":1},{\"id\":\"59\",\"title\":\"QA Automation Engineer wcw81v\",\"company\":\"TrueHire QA Labs\",\"location\":\"Bengaluru\",\"status\":\"open\",\"employment_type\":\"FULL_TIME\",\"created_at\":\"2026-05-06T09:42:05.000Z\",\"recruiter_id\":\"6\",\"applications_count\":0},{\"id\":\"48\",\"title\":\"QA Automation Engineer b8uetg\",\"company\":\"TrueHire QA Labs\",\"location\":\"Bengaluru\",\"status\":\"open\",\"employment_type\":\"FULL_TIME\",\"created_at\":\"2026-05-06T09:14:34.000Z\",\"recruiter_id\":\"6\",\"applications_count\":0},{\"id\":\"49\",\"title\":\"QA Automation Engineer w5mn09\",\"company\":\"TrueHire QA Labs\",\"location\":\"Bengaluru\",\"status\":\"open\",\"employment_type\":\"FULL_TIME\",\"created_at\":\"2026-05-06T09:14:34.000Z\",\"recruiter_id\":\"6\",\"applications_count\":1},{\"id\":\"50\",\"title\":\"QA Automation Engineer 1pasbt\",\"company\":\"TrueHire QA Labs\",\"location\":\"Bengaluru\",\"status\":\"open\",\"employment_type\":\"FULL_TIME\",\"created_at\":\"2026-05-06T09:14:34.000Z\",\"recruiter_id\":\"6\",\"applications_count\":1},{\"id\":\"51\",\"title\":\"QA Automation Engineer r3p770\",\"company\":\"TrueHire QA Labs\",\"location\":\"Bengaluru\",\"status\":\"open\",\"employment_type\":\"FULL_TIME\",\"created_at\":\"2026-05-06T09:14:34.000Z\",\"recruiter_id\":\"6\",\"applications_count\":0},{\"id\":\"39\",\"title\":\"QA Automation Engineer 3k36p7\",\"company\":\"TrueHire QA Labs\",\"location\":\"Bengaluru\",\"status\":\"open\",\"employment_type\":\"FULL_TIME\",\"created_at\":\"2026-05-06T09:14:26.000Z\",\"recruiter_id\":\"6\",\"applications_count\":1},{\"id\":\"40\",\"title\":\"QA Automation Engineer h2bne9\",\"company\":\"TrueHire QA Labs\",\"location\":\"Bengaluru\",\"status\":\"open\",\"employment_type\":\"FULL_TIME\",\"created_at\":\"2026-05-06T09:14:26.000Z\",\"recruiter_id\":\"6\",\"applications_count\":0}],\"pagination\":{\"page\":1,\"limit\":10,\"total\":30,\"pages\":3}}","uuid":"46487bc7-a12b-4545-91f6-1612f01c9084","stop":1778060579629},{"status":"passed","statusDetails":{},"stage":"finished","steps":[],"attachments":[],"parameters":[],"start":1778060579632,"name":"Expect \"toEqual\"","uuid":"98bf35a5-b8eb-4da8-a972-219dda973922","stop":1778060579634},{"status":"passed","statusDetails":{},"stage":"finished","steps":[],"attachments":[],"parameters":[],"start":1778060579637,"name":"Expect \"toBeTruthy\"","uuid":"052940d8-1207-4df9-b403-60b7063c09bf","stop":1778060579638},{"status":"passed","statusDetails":{},"stage":"finished","steps":[],"attachments":[],"parameters":[],"start":1778060579639,"name":"Expect \"toBeTruthy\"","uuid":"2dfa3eb1-5ab8-45b2-8d18-16c9c300e46a","stop":1778060579640},{"status":"passed","statusDetails":{},"stage":"finished","steps":[{"status":"passed","statusDetails":{},"stage":"finished","steps":[],"attachments":[],"parameters":[],"name":"Fixture \"adminToken\"","start":1778060579643,"uuid":"35e702ba-904c-483c-ba9f-dfeb12440541","stop":1778060579644},{"status":"passed","statusDetails":{},"stage":"finished","steps":[],"attachments":[],"parameters":[],"name":"Fixture \"authApi\"","start":1778060579644,"uuid":"f98f7bd1-e3f9-4309-8427-1d94434c6790","stop":1778060579645},{"status":"passed","statusDetails":{},"stage":"finished","steps":[],"attachments":[],"parameters":[],"name":"Fixture \"adminApi\"","start":1778060579645,"uuid":"6ca61a74-f22d-49f2-b704-4dafbb54d535","stop":1778060579646},{"status":"passed","statusDetails":{},"stage":"finished","steps":[],"attachments":[],"parameters":[],"name":"Fixture \"apiClient\"","start":1778060579646,"uuid":"f8771963-a032-4fd0-b751-ba6492bae18f","stop":1778060579660}],"attachments":[],"parameters":[],"name":"After Hooks","start":1778060579640,"uuid":"ec2f2907-38c9-4503-a726-765f4f8fb8ee","stop":1778060579675}],"attachments":[],"parameters":[{"name":"Project","value":"api"}],"labels":[{"name":"language","value":"javascript"},{"name":"framework","value":"playwright"},{"name":"package","value":"api.admin-advanced.api.spec.js"},{"name":"titlePath","value":" > api > api\\admin-advanced.api.spec.js > Admin API Advanced Coverage"},{"name":"host","value":"DESKTOP-RH0M79P"},{"name":"thread","value":"pid-9736-worker-3"},{"name":"parentSuite","value":"api"},{"name":"suite","value":"api\\admin-advanced.api.spec.js"},{"name":"subSuite","value":"Admin API Advanced Coverage"}],"links":[],"start":1778060579437,"testCaseId":"fd90fa2e28232a1abb94df3c773745b8","fullName":"api/admin-advanced.api.spec.js:33:3","titlePath":["api","admin-advanced.api.spec.js","Admin API Advanced Coverage"],"stop":1778060579642}