{"uuid":"7f376a55-29c1-46a6-beca-f5791f1eef01","name":"admin jobs endpoint can serve report-style data","historyId":"fd90fa2e28232a1abb94df3c773745b8:259864bbb84e0941359ea9e4c0db04ac","status":"passed","statusDetails":{},"stage":"finished","steps":[{"status":"passed","statusDetails":{},"stage":"finished","steps":[{"status":"passed","statusDetails":{},"stage":"finished","steps":[{"status":"passed","statusDetails":{},"stage":"finished","steps":[],"attachments":[],"parameters":[],"name":"Create request context","start":1778060523625,"uuid":"527ceffc-671d-4891-868b-b29fc90eb2d6","stop":1778060523637}],"attachments":[],"parameters":[],"name":"Fixture \"apiClient\"","start":1778060523618,"uuid":"1993c04a-bd7d-4837-9b9b-1c3ab54fa5bf","stop":1778060523650},{"status":"passed","statusDetails":{},"stage":"finished","steps":[],"attachments":[],"parameters":[],"name":"Fixture \"adminApi\"","start":1778060523650,"uuid":"9f56f4fb-92f3-4941-814b-2fa1624c21bf","stop":1778060523650},{"status":"passed","statusDetails":{},"stage":"finished","steps":[],"attachments":[],"parameters":[],"name":"Fixture \"authApi\"","start":1778060523651,"uuid":"03059cfa-a0ac-4746-af92-8fce6ccdc09c","stop":1778060523651},{"status":"passed","statusDetails":{},"stage":"finished","steps":[{"status":"passed","statusDetails":{},"stage":"finished","steps":[],"attachments":[],"parameters":[],"name":"POST \"auth/login\"","start":1778060523658,"uuid":"e439d983-43ca-4ba9-af08-0ad7d64b49cd","stop":1778060523694},{"status":"passed","statusDetails":{},"stage":"finished","steps":[],"attachments":[],"parameters":[],"name":"{\"success\":true,\"message\":\"Login successful\",\"user\":{\"id\":\"0\",\"name\":\"TrueHire Admin\",\"email\":\"admin@truehire.com\",\"role\":\"admin\"},\"token\":\"eyJhbGciOiJIUzI1NiIsInR5cCI6IkpXVCJ9.eyJ1c2VySWQiOiIwIiwic3ViIjoiMCIsImlkIjoiMCIsImVtYWlsIjoiYWRtaW5AdHJ1ZWhpcmUuY29tIiwicm9sZSI6IkFETUlOIiwiaWF0IjoxNzc4MDYwNTIzLCJleHAiOjE3Nzg2NjUzMjN9.ooWKLOQCBEG5aYABndZzRcJBhxdfSz8vx7puMPyFKLY\"}","start":1778060523701,"uuid":"07dbf17d-eea0-41cb-8181-415eba0baaa0","stop":1778060523702},{"status":"passed","statusDetails":{},"stage":"finished","steps":[],"attachments":[],"parameters":[],"name":"No JWT token returned for admin login","start":1778060523705,"uuid":"84a794f0-8e46-4d8a-ace9-269a66fe9964","stop":1778060523705}],"attachments":[],"parameters":[],"name":"Fixture \"adminToken\"","start":1778060523651,"uuid":"78074a16-5c94-4f15-86a7-4f7e94df7dd9","stop":1778060523705}],"attachments":[],"parameters":[],"name":"Before Hooks","start":1778060523600,"uuid":"239c0fc2-1b6f-498b-9a7e-1ed4cddbf796","stop":1778060523705},{"status":"passed","statusDetails":{},"stage":"finished","steps":[],"attachments":[],"parameters":[],"start":1778060523712,"name":"GET \"admin/jobs?page=1&limit=10&status=OPEN\"","uuid":"2817b0b2-109d-4f61-8eb6-d06d4afcbb0f","stop":1778060523725},{"status":"passed","statusDetails":{},"stage":"finished","steps":[],"attachments":[],"parameters":[],"start":1778060523731,"name":"{\"success\":true,\"jobs\":[{\"id\":\"48\",\"title\":\"QA Automation Engineer b8uetg\",\"company\":\"TrueHire QA Labs\",\"location\":\"Bengaluru\",\"status\":\"open\",\"employment_type\":\"FULL_TIME\",\"created_at\":\"2026-05-06T09:14:34.000Z\",\"recruiter_id\":\"6\",\"applications_count\":0},{\"id\":\"49\",\"title\":\"QA Automation Engineer w5mn09\",\"company\":\"TrueHire QA Labs\",\"location\":\"Bengaluru\",\"status\":\"open\",\"employment_type\":\"FULL_TIME\",\"created_at\":\"2026-05-06T09:14:34.000Z\",\"recruiter_id\":\"6\",\"applications_count\":1},{\"id\":\"50\",\"title\":\"QA Automation Engineer 1pasbt\",\"company\":\"TrueHire QA Labs\",\"location\":\"Bengaluru\",\"status\":\"open\",\"employment_type\":\"FULL_TIME\",\"created_at\":\"2026-05-06T09:14:34.000Z\",\"recruiter_id\":\"6\",\"applications_count\":1},{\"id\":\"51\",\"title\":\"QA Automation Engineer r3p770\",\"company\":\"TrueHire QA Labs\",\"location\":\"Bengaluru\",\"status\":\"open\",\"employment_type\":\"FULL_TIME\",\"created_at\":\"2026-05-06T09:14:34.000Z\",\"recruiter_id\":\"6\",\"applications_count\":0},{\"id\":\"39\",\"title\":\"QA Automation Engineer 3k36p7\",\"company\":\"TrueHire QA Labs\",\"location\":\"Bengaluru\",\"status\":\"open\",\"employment_type\":\"FULL_TIME\",\"created_at\":\"2026-05-06T09:14:26.000Z\",\"recruiter_id\":\"6\",\"applications_count\":1},{\"id\":\"40\",\"title\":\"QA Automation Engineer h2bne9\",\"company\":\"TrueHire QA Labs\",\"location\":\"Bengaluru\",\"status\":\"open\",\"employment_type\":\"FULL_TIME\",\"created_at\":\"2026-05-06T09:14:26.000Z\",\"recruiter_id\":\"6\",\"applications_count\":0},{\"id\":\"41\",\"title\":\"QA Automation Engineer 88v0bo\",\"company\":\"TrueHire QA Labs\",\"location\":\"Bengaluru\",\"status\":\"open\",\"employment_type\":\"FULL_TIME\",\"created_at\":\"2026-05-06T09:14:26.000Z\",\"recruiter_id\":\"6\",\"applications_count\":0},{\"id\":\"42\",\"title\":\"QA Automation Engineer 77um56\",\"company\":\"TrueHire QA Labs\",\"location\":\"Bengaluru\",\"status\":\"open\",\"employment_type\":\"FULL_TIME\",\"created_at\":\"2026-05-06T09:14:26.000Z\",\"recruiter_id\":\"6\",\"applications_count\":1},{\"id\":\"30\",\"title\":\"QA Automation Engineer gnoefi\",\"company\":\"TrueHire QA Labs\",\"location\":\"Bengaluru\",\"status\":\"open\",\"employment_type\":\"FULL_TIME\",\"created_at\":\"2026-05-06T09:09:37.000Z\",\"recruiter_id\":\"6\",\"applications_count\":1},{\"id\":\"31\",\"title\":\"QA Automation Engineer 359auf\",\"company\":\"TrueHire QA Labs\",\"location\":\"Bengaluru\",\"status\":\"open\",\"employment_type\":\"FULL_TIME\",\"created_at\":\"2026-05-06T09:09:37.000Z\",\"recruiter_id\":\"6\",\"applications_count\":0}],\"pagination\":{\"page\":1,\"limit\":10,\"total\":26,\"pages\":3}}","uuid":"b9407773-dcd1-4ff5-83c3-0e68632a1485","stop":1778060523729},{"status":"passed","statusDetails":{},"stage":"finished","steps":[],"attachments":[],"parameters":[],"start":1778060523734,"name":"{\"success\":true,\"jobs\":[{\"id\":\"48\",\"title\":\"QA Automation Engineer b8uetg\",\"company\":\"TrueHire QA Labs\",\"location\":\"Bengaluru\",\"status\":\"open\",\"employment_type\":\"FULL_TIME\",\"created_at\":\"2026-05-06T09:14:34.000Z\",\"recruiter_id\":\"6\",\"applications_count\":0},{\"id\":\"49\",\"title\":\"QA Automation Engineer w5mn09\",\"company\":\"TrueHire QA Labs\",\"location\":\"Bengaluru\",\"status\":\"open\",\"employment_type\":\"FULL_TIME\",\"created_at\":\"2026-05-06T09:14:34.000Z\",\"recruiter_id\":\"6\",\"applications_count\":1},{\"id\":\"50\",\"title\":\"QA Automation Engineer 1pasbt\",\"company\":\"TrueHire QA Labs\",\"location\":\"Bengaluru\",\"status\":\"open\",\"employment_type\":\"FULL_TIME\",\"created_at\":\"2026-05-06T09:14:34.000Z\",\"recruiter_id\":\"6\",\"applications_count\":1},{\"id\":\"51\",\"title\":\"QA Automation Engineer r3p770\",\"company\":\"TrueHire QA Labs\",\"location\":\"Bengaluru\",\"status\":\"open\",\"employment_type\":\"FULL_TIME\",\"created_at\":\"2026-05-06T09:14:34.000Z\",\"recruiter_id\":\"6\",\"applications_count\":0},{\"id\":\"39\",\"title\":\"QA Automation Engineer 3k36p7\",\"company\":\"TrueHire QA Labs\",\"location\":\"Bengaluru\",\"status\":\"open\",\"employment_type\":\"FULL_TIME\",\"created_at\":\"2026-05-06T09:14:26.000Z\",\"recruiter_id\":\"6\",\"applications_count\":1},{\"id\":\"40\",\"title\":\"QA Automation Engineer h2bne9\",\"company\":\"TrueHire QA Labs\",\"location\":\"Bengaluru\",\"status\":\"open\",\"employment_type\":\"FULL_TIME\",\"created_at\":\"2026-05-06T09:14:26.000Z\",\"recruiter_id\":\"6\",\"applications_count\":0},{\"id\":\"41\",\"title\":\"QA Automation Engineer 88v0bo\",\"company\":\"TrueHire QA Labs\",\"location\":\"Bengaluru\",\"status\":\"open\",\"employment_type\":\"FULL_TIME\",\"created_at\":\"2026-05-06T09:14:26.000Z\",\"recruiter_id\":\"6\",\"applications_count\":0},{\"id\":\"42\",\"title\":\"QA Automation Engineer 77um56\",\"company\":\"TrueHire QA Labs\",\"location\":\"Bengaluru\",\"status\":\"open\",\"employment_type\":\"FULL_TIME\",\"created_at\":\"2026-05-06T09:14:26.000Z\",\"recruiter_id\":\"6\",\"applications_count\":1},{\"id\":\"30\",\"title\":\"QA Automation Engineer gnoefi\",\"company\":\"TrueHire QA Labs\",\"location\":\"Bengaluru\",\"status\":\"open\",\"employment_type\":\"FULL_TIME\",\"created_at\":\"2026-05-06T09:09:37.000Z\",\"recruiter_id\":\"6\",\"applications_count\":1},{\"id\":\"31\",\"title\":\"QA Automation Engineer 359auf\",\"company\":\"TrueHire QA Labs\",\"location\":\"Bengaluru\",\"status\":\"open\",\"employment_type\":\"FULL_TIME\",\"created_at\":\"2026-05-06T09:09:37.000Z\",\"recruiter_id\":\"6\",\"applications_count\":0}],\"pagination\":{\"page\":1,\"limit\":10,\"total\":26,\"pages\":3}}","uuid":"2737e1a4-4685-4779-b064-9e4153c1466c","stop":1778060523732},{"status":"passed","statusDetails":{},"stage":"finished","steps":[],"attachments":[],"parameters":[],"start":1778060523738,"name":"Expect \"toEqual\"","uuid":"076bc831-aedd-416d-a0ec-749910d537b3","stop":1778060523739},{"status":"passed","statusDetails":{},"stage":"finished","steps":[],"attachments":[],"parameters":[],"start":1778060523740,"name":"Expect \"toBeTruthy\"","uuid":"5f5dd8af-1abf-4e81-9fea-5cae4722be7a","stop":1778060523741},{"status":"passed","statusDetails":{},"stage":"finished","steps":[],"attachments":[],"parameters":[],"start":1778060523742,"name":"Expect \"toBeTruthy\"","uuid":"bbebca96-7ef2-40c8-9769-f929172db569","stop":1778060523741},{"status":"passed","statusDetails":{},"stage":"finished","steps":[{"status":"passed","statusDetails":{},"stage":"finished","steps":[],"attachments":[],"parameters":[],"name":"Fixture \"adminToken\"","start":1778060523745,"uuid":"03f277cb-f35c-4bca-ad8e-7a19a0706898","stop":1778060523745},{"status":"passed","statusDetails":{},"stage":"finished","steps":[],"attachments":[],"parameters":[],"name":"Fixture \"authApi\"","start":1778060523746,"uuid":"f51a9226-8a8c-473b-9787-fda7d4c73bb7","stop":1778060523746},{"status":"passed","statusDetails":{},"stage":"finished","steps":[],"attachments":[],"parameters":[],"name":"Fixture \"adminApi\"","start":1778060523747,"uuid":"b39cb42c-9f5c-4644-8cf3-d637d543660b","stop":1778060523747},{"status":"passed","statusDetails":{},"stage":"finished","steps":[],"attachments":[],"parameters":[],"name":"Fixture \"apiClient\"","start":1778060523747,"uuid":"fc7640cc-121d-4f35-af4b-5e201490a0bc","stop":1778060523761}],"attachments":[],"parameters":[],"name":"After Hooks","start":1778060523743,"uuid":"cce0f8b1-d63a-4056-ac79-a99455dda822","stop":1778060523777}],"attachments":[],"parameters":[{"name":"Project","value":"api"}],"labels":[{"name":"language","value":"javascript"},{"name":"framework","value":"playwright"},{"name":"package","value":"api.admin-advanced.api.spec.js"},{"name":"titlePath","value":" > api > api\\admin-advanced.api.spec.js > Admin API Advanced Coverage"},{"name":"host","value":"DESKTOP-RH0M79P"},{"name":"thread","value":"pid-2524-worker-3"},{"name":"parentSuite","value":"api"},{"name":"suite","value":"api\\admin-advanced.api.spec.js"},{"name":"subSuite","value":"Admin API Advanced Coverage"}],"links":[],"start":1778060523610,"testCaseId":"fd90fa2e28232a1abb94df3c773745b8","fullName":"api/admin-advanced.api.spec.js:33:3","titlePath":["api","admin-advanced.api.spec.js","Admin API Advanced Coverage"],"stop":1778060523752}