{"uuid":"8da4c6ca-2390-4a05-a31c-70feadea1ccf","name":"admin jobs endpoint can serve report-style data","historyId":"fd90fa2e28232a1abb94df3c773745b8:259864bbb84e0941359ea9e4c0db04ac","status":"passed","statusDetails":{},"stage":"finished","steps":[{"status":"passed","statusDetails":{},"stage":"finished","steps":[{"status":"passed","statusDetails":{},"stage":"finished","steps":[{"status":"passed","statusDetails":{},"stage":"finished","steps":[],"attachments":[],"parameters":[],"name":"Create request context","start":1778058872936,"uuid":"531f0791-767d-4769-8f76-156d1f7a465d","stop":1778058872943}],"attachments":[],"parameters":[],"name":"Fixture \"apiClient\"","start":1778058872931,"uuid":"36666b63-0316-44a3-9f38-03be2b9ba120","stop":1778058872952},{"status":"passed","statusDetails":{},"stage":"finished","steps":[],"attachments":[],"parameters":[],"name":"Fixture \"adminApi\"","start":1778058872953,"uuid":"64961070-56fe-4925-82e5-7db660470815","stop":1778058872953},{"status":"passed","statusDetails":{},"stage":"finished","steps":[],"attachments":[],"parameters":[],"name":"Fixture \"authApi\"","start":1778058872954,"uuid":"d0527dea-cdd2-4eca-948e-e44cf5952dd6","stop":1778058872955},{"status":"passed","statusDetails":{},"stage":"finished","steps":[{"status":"passed","statusDetails":{},"stage":"finished","steps":[],"attachments":[],"parameters":[],"name":"POST \"auth/login\"","start":1778058872967,"uuid":"b93a74a9-ee05-4895-ad3b-88f22d0e775c","stop":1778058873084},{"status":"passed","statusDetails":{},"stage":"finished","steps":[],"attachments":[],"parameters":[],"name":"{\"success\":true,\"message\":\"Login successful\",\"user\":{\"id\":\"0\",\"name\":\"TrueHire Admin\",\"email\":\"admin@truehire.com\",\"role\":\"admin\"},\"token\":\"eyJhbGciOiJIUzI1NiIsInR5cCI6IkpXVCJ9.eyJ1c2VySWQiOiIwIiwic3ViIjoiMCIsImlkIjoiMCIsImVtYWlsIjoiYWRtaW5AdHJ1ZWhpcmUuY29tIiwicm9sZSI6IkFETUlOIiwiaWF0IjoxNzc4MDU4ODczLCJleHAiOjE3Nzg2NjM2NzN9.HJrs2dgiCAz-Jg-7FEKwdTGLG5O-qTaCaDfRjIMOSbI\"}","start":1778058873091,"uuid":"20450009-87e0-4a69-a609-a46a3e48f300","stop":1778058873092},{"status":"passed","statusDetails":{},"stage":"finished","steps":[],"attachments":[],"parameters":[],"name":"No JWT token returned for admin login","start":1778058873095,"uuid":"17b45f9f-0772-48fc-b8f9-c6fa86a68d9e","stop":1778058873096}],"attachments":[],"parameters":[],"name":"Fixture \"adminToken\"","start":1778058872955,"uuid":"00d1826c-bff1-462a-84be-f4ba0951cebe","stop":1778058873096}],"attachments":[],"parameters":[],"name":"Before Hooks","start":1778058872897,"uuid":"237c7002-8531-4a10-af95-7350aca60731","stop":1778058873096},{"status":"passed","statusDetails":{},"stage":"finished","steps":[],"attachments":[],"parameters":[],"start":1778058873103,"name":"GET \"admin/jobs?page=1&limit=10&status=OPEN\"","uuid":"f139bd23-579f-4e9d-b688-ba2aa168efb9","stop":1778058873127},{"status":"passed","statusDetails":{},"stage":"finished","steps":[],"attachments":[],"parameters":[],"start":1778058873135,"name":"{\"success\":true,\"jobs\":[{\"id\":\"39\",\"title\":\"QA Automation Engineer 3k36p7\",\"company\":\"TrueHire QA Labs\",\"location\":\"Bengaluru\",\"status\":\"open\",\"employment_type\":\"FULL_TIME\",\"created_at\":\"2026-05-06T09:14:26.000Z\",\"recruiter_id\":\"6\",\"applications_count\":1},{\"id\":\"40\",\"title\":\"QA Automation Engineer h2bne9\",\"company\":\"TrueHire QA Labs\",\"location\":\"Bengaluru\",\"status\":\"open\",\"employment_type\":\"FULL_TIME\",\"created_at\":\"2026-05-06T09:14:26.000Z\",\"recruiter_id\":\"6\",\"applications_count\":0},{\"id\":\"41\",\"title\":\"QA Automation Engineer 88v0bo\",\"company\":\"TrueHire QA Labs\",\"location\":\"Bengaluru\",\"status\":\"open\",\"employment_type\":\"FULL_TIME\",\"created_at\":\"2026-05-06T09:14:26.000Z\",\"recruiter_id\":\"6\",\"applications_count\":0},{\"id\":\"42\",\"title\":\"QA Automation Engineer 77um56\",\"company\":\"TrueHire QA Labs\",\"location\":\"Bengaluru\",\"status\":\"open\",\"employment_type\":\"FULL_TIME\",\"created_at\":\"2026-05-06T09:14:26.000Z\",\"recruiter_id\":\"6\",\"applications_count\":1},{\"id\":\"30\",\"title\":\"QA Automation Engineer gnoefi\",\"company\":\"TrueHire QA Labs\",\"location\":\"Bengaluru\",\"status\":\"open\",\"employment_type\":\"FULL_TIME\",\"created_at\":\"2026-05-06T09:09:37.000Z\",\"recruiter_id\":\"6\",\"applications_count\":1},{\"id\":\"31\",\"title\":\"QA Automation Engineer 359auf\",\"company\":\"TrueHire QA Labs\",\"location\":\"Bengaluru\",\"status\":\"open\",\"employment_type\":\"FULL_TIME\",\"created_at\":\"2026-05-06T09:09:37.000Z\",\"recruiter_id\":\"6\",\"applications_count\":0},{\"id\":\"32\",\"title\":\"QA Automation Engineer o42xfy\",\"company\":\"TrueHire QA Labs\",\"location\":\"Bengaluru\",\"status\":\"open\",\"employment_type\":\"FULL_TIME\",\"created_at\":\"2026-05-06T09:09:37.000Z\",\"recruiter_id\":\"6\",\"applications_count\":0},{\"id\":\"33\",\"title\":\"QA Automation Engineer 3c82wc\",\"company\":\"TrueHire QA Labs\",\"location\":\"Bengaluru\",\"status\":\"open\",\"employment_type\":\"FULL_TIME\",\"created_at\":\"2026-05-06T09:09:37.000Z\",\"recruiter_id\":\"6\",\"applications_count\":1},{\"id\":\"22\",\"title\":\"QA Automation Engineer ax71rm\",\"company\":\"TrueHire QA Labs\",\"location\":\"Bengaluru\",\"status\":\"open\",\"employment_type\":\"FULL_TIME\",\"created_at\":\"2026-05-06T09:07:25.000Z\",\"recruiter_id\":\"6\",\"applications_count\":1},{\"id\":\"23\",\"title\":\"QA Automation Engineer aqn9gf\",\"company\":\"TrueHire QA Labs\",\"location\":\"Bengaluru\",\"status\":\"open\",\"employment_type\":\"FULL_TIME\",\"created_at\":\"2026-05-06T09:07:25.000Z\",\"recruiter_id\":\"6\",\"applications_count\":0}],\"pagination\":{\"page\":1,\"limit\":10,\"total\":22,\"pages\":3}}","uuid":"ce79ca87-7190-4c9e-a18f-3a4a85b71d6b","stop":1778058873136},{"status":"passed","statusDetails":{},"stage":"finished","steps":[],"attachments":[],"parameters":[],"start":1778058873142,"name":"{\"success\":true,\"jobs\":[{\"id\":\"39\",\"title\":\"QA Automation Engineer 3k36p7\",\"company\":\"TrueHire QA Labs\",\"location\":\"Bengaluru\",\"status\":\"open\",\"employment_type\":\"FULL_TIME\",\"created_at\":\"2026-05-06T09:14:26.000Z\",\"recruiter_id\":\"6\",\"applications_count\":1},{\"id\":\"40\",\"title\":\"QA Automation Engineer h2bne9\",\"company\":\"TrueHire QA Labs\",\"location\":\"Bengaluru\",\"status\":\"open\",\"employment_type\":\"FULL_TIME\",\"created_at\":\"2026-05-06T09:14:26.000Z\",\"recruiter_id\":\"6\",\"applications_count\":0},{\"id\":\"41\",\"title\":\"QA Automation Engineer 88v0bo\",\"company\":\"TrueHire QA Labs\",\"location\":\"Bengaluru\",\"status\":\"open\",\"employment_type\":\"FULL_TIME\",\"created_at\":\"2026-05-06T09:14:26.000Z\",\"recruiter_id\":\"6\",\"applications_count\":0},{\"id\":\"42\",\"title\":\"QA Automation Engineer 77um56\",\"company\":\"TrueHire QA Labs\",\"location\":\"Bengaluru\",\"status\":\"open\",\"employment_type\":\"FULL_TIME\",\"created_at\":\"2026-05-06T09:14:26.000Z\",\"recruiter_id\":\"6\",\"applications_count\":1},{\"id\":\"30\",\"title\":\"QA Automation Engineer gnoefi\",\"company\":\"TrueHire QA Labs\",\"location\":\"Bengaluru\",\"status\":\"open\",\"employment_type\":\"FULL_TIME\",\"created_at\":\"2026-05-06T09:09:37.000Z\",\"recruiter_id\":\"6\",\"applications_count\":1},{\"id\":\"31\",\"title\":\"QA Automation Engineer 359auf\",\"company\":\"TrueHire QA Labs\",\"location\":\"Bengaluru\",\"status\":\"open\",\"employment_type\":\"FULL_TIME\",\"created_at\":\"2026-05-06T09:09:37.000Z\",\"recruiter_id\":\"6\",\"applications_count\":0},{\"id\":\"32\",\"title\":\"QA Automation Engineer o42xfy\",\"company\":\"TrueHire QA Labs\",\"location\":\"Bengaluru\",\"status\":\"open\",\"employment_type\":\"FULL_TIME\",\"created_at\":\"2026-05-06T09:09:37.000Z\",\"recruiter_id\":\"6\",\"applications_count\":0},{\"id\":\"33\",\"title\":\"QA Automation Engineer 3c82wc\",\"company\":\"TrueHire QA Labs\",\"location\":\"Bengaluru\",\"status\":\"open\",\"employment_type\":\"FULL_TIME\",\"created_at\":\"2026-05-06T09:09:37.000Z\",\"recruiter_id\":\"6\",\"applications_count\":1},{\"id\":\"22\",\"title\":\"QA Automation Engineer ax71rm\",\"company\":\"TrueHire QA Labs\",\"location\":\"Bengaluru\",\"status\":\"open\",\"employment_type\":\"FULL_TIME\",\"created_at\":\"2026-05-06T09:07:25.000Z\",\"recruiter_id\":\"6\",\"applications_count\":1},{\"id\":\"23\",\"title\":\"QA Automation Engineer aqn9gf\",\"company\":\"TrueHire QA Labs\",\"location\":\"Bengaluru\",\"status\":\"open\",\"employment_type\":\"FULL_TIME\",\"created_at\":\"2026-05-06T09:07:25.000Z\",\"recruiter_id\":\"6\",\"applications_count\":0}],\"pagination\":{\"page\":1,\"limit\":10,\"total\":22,\"pages\":3}}","uuid":"a929215d-64af-4ec3-ad72-64d2c72ec1d6","stop":1778058873150},{"status":"passed","statusDetails":{},"stage":"finished","steps":[],"attachments":[],"parameters":[],"start":1778058873146,"name":"Expect \"toEqual\"","uuid":"b867094d-1b77-4363-84b2-47dd3d689d0b","stop":1778058873148},{"status":"passed","statusDetails":{},"stage":"finished","steps":[],"attachments":[],"parameters":[],"start":1778058873150,"name":"Expect \"toBeTruthy\"","uuid":"0c27036d-2b24-4154-8154-a96ccd30257c","stop":1778058873150},{"status":"passed","statusDetails":{},"stage":"finished","steps":[],"attachments":[],"parameters":[],"start":1778058873152,"name":"Expect \"toBeTruthy\"","uuid":"f849454e-761e-4a40-bc55-369af8e7b340","stop":1778058873152},{"status":"passed","statusDetails":{},"stage":"finished","steps":[{"status":"passed","statusDetails":{},"stage":"finished","steps":[],"attachments":[],"parameters":[],"name":"Fixture \"adminToken\"","start":1778058873156,"uuid":"f62f81a6-b0da-40b9-b1b7-b0ae707e55ea","stop":1778058873157},{"status":"passed","statusDetails":{},"stage":"finished","steps":[],"attachments":[],"parameters":[],"name":"Fixture \"authApi\"","start":1778058873158,"uuid":"20c35a56-daef-4e3e-a302-ba40d1731784","stop":1778058873158},{"status":"passed","statusDetails":{},"stage":"finished","steps":[],"attachments":[],"parameters":[],"name":"Fixture \"adminApi\"","start":1778058873159,"uuid":"6b8fec8f-b5a6-4bad-a1fc-72811de590c1","stop":1778058873159},{"status":"passed","statusDetails":{},"stage":"finished","steps":[],"attachments":[],"parameters":[],"name":"Fixture \"apiClient\"","start":1778058873160,"uuid":"a573d356-a38a-41a9-a0e6-ae732df8556e","stop":1778058873190}],"attachments":[],"parameters":[],"name":"After Hooks","start":1778058873153,"uuid":"500dd106-9e4e-4d48-a13c-096266ea22c6","stop":1778058873222}],"attachments":[],"parameters":[{"name":"Project","value":"api"}],"labels":[{"name":"language","value":"javascript"},{"name":"framework","value":"playwright"},{"name":"package","value":"api.admin-advanced.api.spec.js"},{"name":"titlePath","value":" > api > api\\admin-advanced.api.spec.js > Admin API Advanced Coverage"},{"name":"host","value":"DESKTOP-RH0M79P"},{"name":"thread","value":"pid-16576-worker-3"},{"name":"parentSuite","value":"api"},{"name":"suite","value":"api\\admin-advanced.api.spec.js"},{"name":"subSuite","value":"Admin API Advanced Coverage"}],"links":[],"start":1778058872899,"testCaseId":"fd90fa2e28232a1abb94df3c773745b8","fullName":"api/admin-advanced.api.spec.js:33:3","titlePath":["api","admin-advanced.api.spec.js","Admin API Advanced Coverage"],"stop":1778058873157}