{"uuid":"9fd17c1c-cc99-4487-846f-c49a6a5c47e8","name":"admin jobs endpoint can serve report-style data","historyId":"fd90fa2e28232a1abb94df3c773745b8:259864bbb84e0941359ea9e4c0db04ac","status":"passed","statusDetails":{},"stage":"finished","steps":[{"status":"passed","statusDetails":{},"stage":"finished","steps":[{"status":"passed","statusDetails":{},"stage":"finished","steps":[{"status":"passed","statusDetails":{},"stage":"finished","steps":[],"attachments":[],"parameters":[],"name":"Create request context","start":1778058576266,"uuid":"ca860209-66eb-43b1-a6fe-87fdb04a15ab","stop":1778058576271}],"attachments":[],"parameters":[],"name":"Fixture \"apiClient\"","start":1778058576261,"uuid":"db2ca181-6799-4724-acc8-733631116e2f","stop":1778058576283},{"status":"passed","statusDetails":{},"stage":"finished","steps":[],"attachments":[],"parameters":[],"name":"Fixture \"adminApi\"","start":1778058576283,"uuid":"85a648c4-e1e5-464a-acfe-36efcdf5b037","stop":1778058576284},{"status":"passed","statusDetails":{},"stage":"finished","steps":[],"attachments":[],"parameters":[],"name":"Fixture \"authApi\"","start":1778058576284,"uuid":"43b16824-1667-459d-bc2f-4384255c8826","stop":1778058576285},{"status":"passed","statusDetails":{},"stage":"finished","steps":[{"status":"passed","statusDetails":{},"stage":"finished","steps":[],"attachments":[],"parameters":[],"name":"POST \"auth/login\"","start":1778058576302,"uuid":"f9e210d2-d562-4f1d-98d6-253f0d4abd7c","stop":1778058576396},{"status":"passed","statusDetails":{},"stage":"finished","steps":[],"attachments":[],"parameters":[],"name":"{\"success\":true,\"message\":\"Login successful\",\"user\":{\"id\":\"0\",\"name\":\"TrueHire Admin\",\"email\":\"admin@truehire.com\",\"role\":\"admin\"},\"token\":\"eyJhbGciOiJIUzI1NiIsInR5cCI6IkpXVCJ9.eyJ1c2VySWQiOiIwIiwic3ViIjoiMCIsImlkIjoiMCIsImVtYWlsIjoiYWRtaW5AdHJ1ZWhpcmUuY29tIiwicm9sZSI6IkFETUlOIiwiaWF0IjoxNzc4MDU4NTc2LCJleHAiOjE3Nzg2NjMzNzZ9.wnEfMeU1b8sQk74D9FoQ4pu8TsKBV9XtkheUHgqJyNY\"}","start":1778058576401,"uuid":"92c5d426-0bd5-4914-bbaa-daa7a6637969","stop":1778058576402},{"status":"passed","statusDetails":{},"stage":"finished","steps":[],"attachments":[],"parameters":[],"name":"No JWT token returned for admin login","start":1778058576405,"uuid":"43ebb554-8231-4a6b-ac71-439325d47594","stop":1778058576406}],"attachments":[],"parameters":[],"name":"Fixture \"adminToken\"","start":1778058576285,"uuid":"67cbba14-063f-45bc-98f0-c40a0b882301","stop":1778058576406}],"attachments":[],"parameters":[],"name":"Before Hooks","start":1778058576237,"uuid":"d25d8707-6e82-4759-952f-68f97694e840","stop":1778058576406},{"status":"passed","statusDetails":{},"stage":"finished","steps":[],"attachments":[],"parameters":[],"start":1778058576409,"name":"GET \"admin/jobs?page=1&limit=10&status=OPEN\"","uuid":"ff83c811-8296-4557-8ea4-78cc69abfe08","stop":1778058576430},{"status":"passed","statusDetails":{},"stage":"finished","steps":[],"attachments":[],"parameters":[],"start":1778058576434,"name":"{\"success\":true,\"jobs\":[{\"id\":\"22\",\"title\":\"QA Automation Engineer ax71rm\",\"company\":\"TrueHire QA Labs\",\"location\":\"Bengaluru\",\"status\":\"open\",\"employment_type\":\"FULL_TIME\",\"created_at\":\"2026-05-06T09:07:25.000Z\",\"recruiter_id\":\"6\",\"applications_count\":1},{\"id\":\"23\",\"title\":\"QA Automation Engineer aqn9gf\",\"company\":\"TrueHire QA Labs\",\"location\":\"Bengaluru\",\"status\":\"open\",\"employment_type\":\"FULL_TIME\",\"created_at\":\"2026-05-06T09:07:25.000Z\",\"recruiter_id\":\"6\",\"applications_count\":0},{\"id\":\"24\",\"title\":\"QA Automation Engineer 2a0kc5\",\"company\":\"TrueHire QA Labs\",\"location\":\"Bengaluru\",\"status\":\"open\",\"employment_type\":\"FULL_TIME\",\"created_at\":\"2026-05-06T09:07:25.000Z\",\"recruiter_id\":\"6\",\"applications_count\":1},{\"id\":\"25\",\"title\":\"QA Automation Engineer xknai2\",\"company\":\"TrueHire QA Labs\",\"location\":\"Bengaluru\",\"status\":\"open\",\"employment_type\":\"FULL_TIME\",\"created_at\":\"2026-05-06T09:07:25.000Z\",\"recruiter_id\":\"6\",\"applications_count\":0},{\"id\":\"17\",\"title\":\"QA Automation Engineer jonwm6\",\"company\":\"TrueHire QA Labs\",\"location\":\"Bengaluru\",\"status\":\"open\",\"employment_type\":\"FULL_TIME\",\"created_at\":\"2026-05-06T09:05:55.000Z\",\"recruiter_id\":\"6\",\"applications_count\":0},{\"id\":\"14\",\"title\":\"QA Automation Engineer 0ul9jb\",\"company\":\"TrueHire QA Labs\",\"location\":\"Bengaluru\",\"status\":\"open\",\"employment_type\":\"FULL_TIME\",\"created_at\":\"2026-05-06T09:05:54.000Z\",\"recruiter_id\":\"6\",\"applications_count\":1},{\"id\":\"15\",\"title\":\"QA Automation Engineer m82oc6\",\"company\":\"TrueHire QA Labs\",\"location\":\"Bengaluru\",\"status\":\"open\",\"employment_type\":\"FULL_TIME\",\"created_at\":\"2026-05-06T09:05:54.000Z\",\"recruiter_id\":\"6\",\"applications_count\":1},{\"id\":\"16\",\"title\":\"QA Automation Engineer 6qqvjv\",\"company\":\"TrueHire QA Labs\",\"location\":\"Bengaluru\",\"status\":\"open\",\"employment_type\":\"FULL_TIME\",\"created_at\":\"2026-05-06T09:05:54.000Z\",\"recruiter_id\":\"6\",\"applications_count\":0},{\"id\":\"8\",\"title\":\"QA Automation Engineer 7ih3tp\",\"company\":\"TrueHire QA Labs\",\"location\":\"Bengaluru\",\"status\":\"open\",\"employment_type\":\"FULL_TIME\",\"created_at\":\"2026-05-06T06:58:32.000Z\",\"recruiter_id\":\"6\",\"applications_count\":0},{\"id\":\"7\",\"title\":\"QA Automation Engineer ilag3o\",\"company\":\"TrueHire QA Labs\",\"location\":\"Bengaluru\",\"status\":\"open\",\"employment_type\":\"FULL_TIME\",\"created_at\":\"2026-05-06T06:58:09.000Z\",\"recruiter_id\":\"6\",\"applications_count\":0}],\"pagination\":{\"page\":1,\"limit\":10,\"total\":14,\"pages\":2}}","uuid":"c1fecc3a-b79c-4b7b-aa5b-016c68f22ec8","stop":1778058576435},{"status":"passed","statusDetails":{},"stage":"finished","steps":[],"attachments":[],"parameters":[],"start":1778058576438,"name":"{\"success\":true,\"jobs\":[{\"id\":\"22\",\"title\":\"QA Automation Engineer ax71rm\",\"company\":\"TrueHire QA Labs\",\"location\":\"Bengaluru\",\"status\":\"open\",\"employment_type\":\"FULL_TIME\",\"created_at\":\"2026-05-06T09:07:25.000Z\",\"recruiter_id\":\"6\",\"applications_count\":1},{\"id\":\"23\",\"title\":\"QA Automation Engineer aqn9gf\",\"company\":\"TrueHire QA Labs\",\"location\":\"Bengaluru\",\"status\":\"open\",\"employment_type\":\"FULL_TIME\",\"created_at\":\"2026-05-06T09:07:25.000Z\",\"recruiter_id\":\"6\",\"applications_count\":0},{\"id\":\"24\",\"title\":\"QA Automation Engineer 2a0kc5\",\"company\":\"TrueHire QA Labs\",\"location\":\"Bengaluru\",\"status\":\"open\",\"employment_type\":\"FULL_TIME\",\"created_at\":\"2026-05-06T09:07:25.000Z\",\"recruiter_id\":\"6\",\"applications_count\":1},{\"id\":\"25\",\"title\":\"QA Automation Engineer xknai2\",\"company\":\"TrueHire QA Labs\",\"location\":\"Bengaluru\",\"status\":\"open\",\"employment_type\":\"FULL_TIME\",\"created_at\":\"2026-05-06T09:07:25.000Z\",\"recruiter_id\":\"6\",\"applications_count\":0},{\"id\":\"17\",\"title\":\"QA Automation Engineer jonwm6\",\"company\":\"TrueHire QA Labs\",\"location\":\"Bengaluru\",\"status\":\"open\",\"employment_type\":\"FULL_TIME\",\"created_at\":\"2026-05-06T09:05:55.000Z\",\"recruiter_id\":\"6\",\"applications_count\":0},{\"id\":\"14\",\"title\":\"QA Automation Engineer 0ul9jb\",\"company\":\"TrueHire QA Labs\",\"location\":\"Bengaluru\",\"status\":\"open\",\"employment_type\":\"FULL_TIME\",\"created_at\":\"2026-05-06T09:05:54.000Z\",\"recruiter_id\":\"6\",\"applications_count\":1},{\"id\":\"15\",\"title\":\"QA Automation Engineer m82oc6\",\"company\":\"TrueHire QA Labs\",\"location\":\"Bengaluru\",\"status\":\"open\",\"employment_type\":\"FULL_TIME\",\"created_at\":\"2026-05-06T09:05:54.000Z\",\"recruiter_id\":\"6\",\"applications_count\":1},{\"id\":\"16\",\"title\":\"QA Automation Engineer 6qqvjv\",\"company\":\"TrueHire QA Labs\",\"location\":\"Bengaluru\",\"status\":\"open\",\"employment_type\":\"FULL_TIME\",\"created_at\":\"2026-05-06T09:05:54.000Z\",\"recruiter_id\":\"6\",\"applications_count\":0},{\"id\":\"8\",\"title\":\"QA Automation Engineer 7ih3tp\",\"company\":\"TrueHire QA Labs\",\"location\":\"Bengaluru\",\"status\":\"open\",\"employment_type\":\"FULL_TIME\",\"created_at\":\"2026-05-06T06:58:32.000Z\",\"recruiter_id\":\"6\",\"applications_count\":0},{\"id\":\"7\",\"title\":\"QA Automation Engineer ilag3o\",\"company\":\"TrueHire QA Labs\",\"location\":\"Bengaluru\",\"status\":\"open\",\"employment_type\":\"FULL_TIME\",\"created_at\":\"2026-05-06T06:58:09.000Z\",\"recruiter_id\":\"6\",\"applications_count\":0}],\"pagination\":{\"page\":1,\"limit\":10,\"total\":14,\"pages\":2}}","uuid":"34040bd8-3c12-4e62-b791-9ee0ad37c79c","stop":1778058576440},{"status":"passed","statusDetails":{},"stage":"finished","steps":[],"attachments":[],"parameters":[],"start":1778058576442,"name":"Expect \"toEqual\"","uuid":"99bb9ae8-fb3b-4bdd-bc03-e4fa98e61ee1","stop":1778058576444},{"status":"passed","statusDetails":{},"stage":"finished","steps":[],"attachments":[],"parameters":[],"start":1778058576445,"name":"Expect \"toBeTruthy\"","uuid":"3b2e6e6f-b13f-44e8-b902-c19c9f3791ff","stop":1778058576446},{"status":"passed","statusDetails":{},"stage":"finished","steps":[],"attachments":[],"parameters":[],"start":1778058576447,"name":"Expect \"toBeTruthy\"","uuid":"ed72ffd3-01d3-457b-a3fa-04dde1df831a","stop":1778058576449},{"status":"passed","statusDetails":{},"stage":"finished","steps":[{"status":"passed","statusDetails":{},"stage":"finished","steps":[],"attachments":[],"parameters":[],"name":"Fixture \"adminToken\"","start":1778058576450,"uuid":"7fc16331-aa18-4d98-9577-854bab197dab","stop":1778058576450},{"status":"passed","statusDetails":{},"stage":"finished","steps":[],"attachments":[],"parameters":[],"name":"Fixture \"authApi\"","start":1778058576451,"uuid":"81d3a7fd-65c6-48d0-b58e-a4ef7b68143d","stop":1778058576451},{"status":"passed","statusDetails":{},"stage":"finished","steps":[],"attachments":[],"parameters":[],"name":"Fixture \"adminApi\"","start":1778058576451,"uuid":"5ec4d41e-dbe6-4b65-bf8b-1c23a8223b3d","stop":1778058576451},{"status":"passed","statusDetails":{},"stage":"finished","steps":[],"attachments":[],"parameters":[],"name":"Fixture \"apiClient\"","start":1778058576452,"uuid":"c5a3cd05-5c1a-4395-bdca-c5ece8e619ce","stop":1778058576480}],"attachments":[],"parameters":[],"name":"After Hooks","start":1778058576448,"uuid":"57db860f-d9ae-487a-b42c-75873ae6e38b","stop":1778058576543}],"attachments":[],"parameters":[{"name":"Project","value":"api"}],"labels":[{"name":"language","value":"javascript"},{"name":"framework","value":"playwright"},{"name":"package","value":"api.admin-advanced.api.spec.js"},{"name":"titlePath","value":" > api > api\\admin-advanced.api.spec.js > Admin API Advanced Coverage"},{"name":"host","value":"DESKTOP-RH0M79P"},{"name":"thread","value":"pid-16596-worker-3"},{"name":"parentSuite","value":"api"},{"name":"suite","value":"api\\admin-advanced.api.spec.js"},{"name":"subSuite","value":"Admin API Advanced Coverage"}],"links":[],"start":1778058576233,"testCaseId":"fd90fa2e28232a1abb94df3c773745b8","fullName":"api/admin-advanced.api.spec.js:33:3","titlePath":["api","admin-advanced.api.spec.js","Admin API Advanced Coverage"],"stop":1778058576453}