{"uuid":"a3cad246-48c9-4aa6-a5c7-56cdf08880aa","name":"admin applications endpoint requires admin role","historyId":"dbecd50ca5ad3c18c7f55e62ed06aa06:259864bbb84e0941359ea9e4c0db04ac","status":"passed","statusDetails":{},"stage":"finished","steps":[{"status":"passed","statusDetails":{},"stage":"finished","steps":[{"status":"passed","statusDetails":{},"stage":"finished","steps":[{"status":"passed","statusDetails":{},"stage":"finished","steps":[],"attachments":[],"parameters":[],"name":"Create request context","start":1778060580413,"uuid":"073cd89e-0b1d-4dc7-94b5-1b3b13873d02","stop":1778060580419}],"attachments":[],"parameters":[],"name":"Fixture \"apiClient\"","start":1778060580413,"uuid":"94f0fcb3-ddc6-4e06-bb1d-213ab7f1da67","stop":1778060580420},{"status":"passed","statusDetails":{},"stage":"finished","steps":[],"attachments":[],"parameters":[],"name":"Fixture \"applicationsApi\"","start":1778060580420,"uuid":"0ad262a3-2bef-4c17-a42e-eae9b641705b","stop":1778060580420},{"status":"passed","statusDetails":{},"stage":"finished","steps":[],"attachments":[],"parameters":[],"name":"Fixture \"authApi\"","start":1778060580421,"uuid":"724de081-b0ee-4f00-8c7d-3e4c255f62fd","stop":1778060580421},{"status":"passed","statusDetails":{},"stage":"finished","steps":[{"status":"passed","statusDetails":{},"stage":"finished","steps":[],"attachments":[],"parameters":[],"name":"POST \"auth/login\"","start":1778060580422,"uuid":"c0a2d051-0859-4253-b079-6f13ee757ad4","stop":1778060580590},{"status":"passed","statusDetails":{},"stage":"finished","steps":[],"attachments":[],"parameters":[],"name":"{\"success\":true,\"message\":\"Login successful\",\"user\":{\"id\":\"4\",\"name\":\"QA Candidate\",\"email\":\"qa.candidate@truehire.com\",\"role\":\"user\"},\"token\":\"eyJhbGciOiJIUzI1NiIsInR5cCI6IkpXVCJ9.eyJ1c2VySWQiOiI0Iiwic3ViIjoiNCIsImVtYWlsIjoicWEuY2FuZGlkYXRlQHRydWVoaXJlLmNvbSIsInJvbGUiOiJVU0VSIiwiaWF0IjoxNzc4MDYwNTgwLCJleHAiOjE3Nzg2NjUzODB9.-leB83UMp1OVOWwits3yf-W_cKNG_dBR5s49VnZHQRg\"}","start":1778060580592,"uuid":"4a8ef981-168e-4a13-8853-9e5ce735b2bc","stop":1778060580592},{"status":"passed","statusDetails":{},"stage":"finished","steps":[],"attachments":[],"parameters":[],"name":"No JWT token returned for candidate login","start":1778060580594,"uuid":"2838fef3-d647-4344-86ef-dbf6e43db039","stop":1778060580594}],"attachments":[],"parameters":[],"name":"Fixture \"candidateToken\"","start":1778060580421,"uuid":"f4de73d9-2bf3-4160-bda6-20711e5894ab","stop":1778060580594},{"status":"passed","statusDetails":{},"stage":"finished","steps":[{"status":"passed","statusDetails":{},"stage":"finished","steps":[],"attachments":[],"parameters":[],"name":"POST \"auth/login\"","start":1778060580596,"uuid":"b093d83f-6285-4cdf-b5b3-1b4532f40e19","stop":1778060580602},{"status":"passed","statusDetails":{},"stage":"finished","steps":[],"attachments":[],"parameters":[],"name":"{\"success\":true,\"message\":\"Login successful\",\"user\":{\"id\":\"0\",\"name\":\"TrueHire Admin\",\"email\":\"admin@truehire.com\",\"role\":\"admin\"},\"token\":\"eyJhbGciOiJIUzI1NiIsInR5cCI6IkpXVCJ9.eyJ1c2VySWQiOiIwIiwic3ViIjoiMCIsImlkIjoiMCIsImVtYWlsIjoiYWRtaW5AdHJ1ZWhpcmUuY29tIiwicm9sZSI6IkFETUlOIiwiaWF0IjoxNzc4MDYwNTgwLCJleHAiOjE3Nzg2NjUzODB9.33M212wsCyksiwjzY63x-YckC6rsIeWanesxEoLZWLE\"}","start":1778060580603,"uuid":"ebc5a63d-1023-480d-8fb9-ee52054ba9b1","stop":1778060580604},{"status":"passed","statusDetails":{},"stage":"finished","steps":[],"attachments":[],"parameters":[],"name":"No JWT token returned for admin login","start":1778060580605,"uuid":"d195ce35-9f79-443b-a6ed-7ac30815a90d","stop":1778060580605}],"attachments":[],"parameters":[],"name":"Fixture \"adminToken\"","start":1778060580594,"uuid":"2faf6762-dbed-4030-bbd7-0c4b33678088","stop":1778060580605}],"attachments":[],"parameters":[],"name":"Before Hooks","start":1778060580404,"uuid":"8fd2e9d5-77ff-4c39-bd21-547ac974eec8","stop":1778060580605},{"status":"passed","statusDetails":{},"stage":"finished","steps":[],"attachments":[],"parameters":[],"start":1778060580607,"name":"GET \"admin/applications\"","uuid":"04b1af05-88e6-4109-9cdf-ff8d6cd6503f","stop":1778060580612},{"status":"passed","statusDetails":{},"stage":"finished","steps":[],"attachments":[],"parameters":[],"start":1778060580614,"name":"\n{\"success\":false,\"message\":\"You do not have permission to access this resource\"}","uuid":"54bb4d43-a7ac-4811-ad1f-03f0422002bc","stop":1778060580615},{"status":"passed","statusDetails":{},"stage":"finished","steps":[],"attachments":[],"parameters":[],"start":1778060580616,"name":"GET \"admin/applications\"","uuid":"7ecc4053-4091-4b89-99f6-f7376adc3208","stop":1778060580627},{"status":"passed","statusDetails":{},"stage":"finished","steps":[],"attachments":[],"parameters":[],"start":1778060580629,"name":"\n{\"success\":true,\"applications\":[{\"id\":\"22\",\"user_id\":\"4\",\"job_id\":\"66\",\"status\":\"applied\",\"applied_at\":\"2026-05-06T09:43:00.000Z\",\"updated_at\":\"2026-05-06T09:43:00.000Z\",\"users\":{\"name\":\"QA Candidate\",\"email\":\"qa.candidate@truehire.com\"},\"jobs\":{\"title\":\"QA Automation Engineer 7oi3uh\",\"company\":\"TrueHire QA Labs\",\"recruiters\":{\"name\":\"QA Recruiter\"}},\"job_title\":\"QA Automation Engineer 7oi3uh\",\"company\":\"TrueHire QA Labs\",\"user_name\":\"QA Candidate\",\"user_email\":\"qa.candidate@truehire.com\",\"recruiter_name\":\"QA Recruiter\"},{\"id\":\"23\",\"user_id\":\"4\",\"job_id\":\"67\",\"status\":\"applied\",\"applied_at\":\"2026-05-06T09:43:00.000Z\",\"updated_at\":\"2026-05-06T09:43:00.000Z\",\"users\":{\"name\":\"QA Candidate\",\"email\":\"qa.candidate@truehire.com\"},\"jobs\":{\"title\":\"QA Automation Engineer v4l7ld\",\"company\":\"TrueHire QA Labs\",\"recruiters\":{\"name\":\"QA Recruiter\"}},\"job_title\":\"QA Automation Engineer v4l7ld\",\"company\":\"TrueHire QA Labs\",\"user_name\":\"QA Candidate\",\"user_email\":\"qa.candidate@truehire.com\",\"recruiter_name\":\"QA Recruiter\"},{\"id\":\"20\",\"user_id\":\"4\",\"job_id\":\"57\",\"status\":\"applied\",\"applied_at\":\"2026-05-06T09:42:05.000Z\",\"updated_at\":\"2026-05-06T09:42:05.000Z\",\"users\":{\"name\":\"QA Candidate\",\"email\":\"qa.candidate@truehire.com\"},\"jobs\":{\"title\":\"QA Automation Engineer 7jam8b\",\"company\":\"TrueHire QA Labs\",\"recruiters\":{\"name\":\"QA Recruiter\"}},\"job_title\":\"QA Automation Engineer 7jam8b\",\"company\":\"TrueHire QA Labs\",\"user_name\":\"QA Candidate\",\"user_email\":\"qa.candidate@truehire.com\",\"recruiter_name\":\"QA Recruiter\"},{\"id\":\"21\",\"user_id\":\"4\",\"job_id\":\"58\",\"status\":\"applied\",\"applied_at\":\"2026-05-06T09:42:05.000Z\",\"updated_at\":\"2026-05-06T09:42:05.000Z\",\"users\":{\"name\":\"QA Candidate\",\"email\":\"qa.candidate@truehire.com\"},\"jobs\":{\"title\":\"QA Automation Engineer wg2s4z\",\"company\":\"TrueHire QA Labs\",\"recruiters\":{\"name\":\"QA Recruiter\"}},\"job_title\":\"QA Automation Engineer wg2s4z\",\"company\":\"TrueHire QA Labs\",\"user_name\":\"QA Candidate\",\"user_email\":\"qa.candidate@truehire.com\",\"recruiter_name\":\"QA Recruiter\"},{\"id\":\"18\",\"user_id\":\"4\",\"job_id\":\"49\",\"status\":\"applied\",\"applied_at\":\"2026-05-06T09:14:34.000Z\",\"updated_at\":\"2026-05-06T09:14:34.000Z\",\"users\":{\"name\":\"QA Candidate\",\"email\":\"qa.candidate@truehire.com\"},\"jobs\":{\"title\":\"QA Automation Engineer w5mn09\",\"company\":\"TrueHire QA Labs\",\"recruiters\":{\"name\":\"QA Recruiter\"}},\"job_title\":\"QA Automation Engineer w5mn09\",\"company\":\"TrueHire QA Labs\",\"user_name\":\"QA Candidate\",\"user_email\":\"qa.candidate@truehire.com\",\"recruiter_name\":\"QA Recruiter\"},{\"id\":\"19\",\"user_id\":\"4\",\"job_id\":\"50\",\"status\":\"applied\",\"applied_at\":\"2026-05-06T09:14:34.000Z\",\"updated_at\":\"2026-05-06T09:14:34.000Z\",\"users\":{\"name\":\"QA Candidate\",\"email\":\"qa.candidate@truehire.com\"},\"jobs\":{\"title\":\"QA Automation Engineer 1pasbt\",\"company\":\"TrueHire QA Labs\",\"recruiters\":{\"name\":\"QA Recruiter\"}},\"job_title\":\"QA Automation Engineer 1pasbt\",\"company\":\"TrueHire QA Labs\",\"user_name\":\"QA Candidate\",\"user_email\":\"qa.candidate@truehire.com\",\"recruiter_name\":\"QA Recruiter\"},{\"id\":\"16\",\"user_id\":\"4\",\"job_id\":\"39\",\"status\":\"applied\",\"applied_at\":\"2026-05-06T09:14:26.000Z\",\"updated_at\":\"2026-05-06T09:14:26.000Z\",\"users\":{\"name\":\"QA Candidate\",\"email\":\"qa.candidate@truehire.com\"},\"jobs\":{\"title\":\"QA Automation Engineer 3k36p7\",\"company\":\"TrueHire QA Labs\",\"recruiters\":{\"name\":\"QA Recruiter\"}},\"job_title\":\"QA Automation Engineer 3k36p7\",\"company\":\"TrueHire QA Labs\",\"user_name\":\"QA Candidate\",\"user_email\":\"qa.candidate@truehire.com\",\"recruiter_name\":\"QA Recruiter\"},{\"id\":\"17\",\"user_id\":\"4\",\"job_id\":\"42\",\"status\":\"applied\",\"applied_at\":\"2026-05-06T09:14:26.000Z\",\"updated_at\":\"2026-05-06T09:14:26.000Z\",\"users\":{\"name\":\"QA Candidate\",\"email\":\"qa.candidate@truehire.com\"},\"jobs\":{\"title\":\"QA Automation Engineer 77um56\",\"company\":\"TrueHire QA Labs\",\"recruiters\":{\"name\":\"QA Recruiter\"}},\"job_title\":\"QA Automation Engineer 77um56\",\"company\":\"TrueHire QA Labs\",\"user_name\":\"QA Candidate\",\"user_email\":\"qa.candidate@truehire.com\",\"recruiter_name\":\"QA Recruiter\"},{\"id\":\"14\",\"user_id\":\"4\",\"job_id\":\"30\",\"status\":\"applied\",\"applied_at\":\"2026-05-06T09:09:37.000Z\",\"updated_at\":\"2026-05-06T09:09:37.000Z\",\"users\":{\"name\":\"QA Candidate\",\"email\":\"qa.candidate@truehire.com\"},\"jobs\":{\"title\":\"QA Automation Engineer gnoefi\",\"company\":\"TrueHire QA Labs\",\"recruiters\":{\"name\":\"QA Recruiter\"}},\"job_title\":\"QA Automation Engineer gnoefi\",\"company\":\"TrueHire QA Labs\",\"user_name\":\"QA Candidate\",\"user_email\":\"qa.candidate@truehire.com\",\"recruiter_name\":\"QA Recruiter\"},{\"id\":\"15\",\"user_id\":\"4\",\"job_id\":\"33\",\"status\":\"applied\",\"applied_at\":\"2026-05-06T09:09:37.000Z\",\"updated_at\":\"2026-05-06T09:09:37.000Z\",\"users\":{\"name\":\"QA Candidate\",\"email\":\"qa.candidate@truehire.com\"},\"jobs\":{\"title\":\"QA Automation Engineer 3c82wc\",\"company\":\"TrueHire QA Labs\",\"recruiters\":{\"name\":\"QA Recruiter\"}},\"job_title\":\"QA Automation Engineer 3c82wc\",\"company\":\"TrueHire QA Labs\",\"user_name\":\"QA Candidate\",\"user_email\":\"qa.candidate@truehire.com\",\"recruiter_name\":\"QA Recruiter\"}],\"pagination\":{\"page\":1,\"limit\":10,\"total\":15,\"pages\":2}}","uuid":"bf8c36c2-ec6e-4a31-a3a6-46ce6e506adc","stop":1778060580643},{"status":"passed","statusDetails":{},"stage":"finished","steps":[{"status":"passed","statusDetails":{},"stage":"finished","steps":[],"attachments":[],"parameters":[],"name":"Fixture \"adminToken\"","start":1778060580630,"uuid":"5419e9d5-b97f-4b8f-9ac5-a40ecd99b28d","stop":1778060580630},{"status":"passed","statusDetails":{},"stage":"finished","steps":[],"attachments":[],"parameters":[],"name":"Fixture \"candidateToken\"","start":1778060580630,"uuid":"e5b04f15-2e94-47f7-93e0-a074bb9da9e5","stop":1778060580630},{"status":"passed","statusDetails":{},"stage":"finished","steps":[],"attachments":[],"parameters":[],"name":"Fixture \"authApi\"","start":1778060580631,"uuid":"357f6990-7080-4091-953c-bfea0395433e","stop":1778060580631},{"status":"passed","statusDetails":{},"stage":"finished","steps":[],"attachments":[],"parameters":[],"name":"Fixture \"applicationsApi\"","start":1778060580631,"uuid":"fc41e0fb-16b8-441d-8645-ce9d2430b224","stop":1778060580631},{"status":"passed","statusDetails":{},"stage":"finished","steps":[],"attachments":[],"parameters":[],"name":"Fixture \"apiClient\"","start":1778060580631,"uuid":"9d155e90-7d7b-4d4d-971e-98724625d109","stop":1778060580634}],"attachments":[],"parameters":[],"name":"After Hooks","start":1778060580629,"uuid":"cfd9677b-1ec9-45fb-8899-9c6774e35453","stop":1778060580644}],"attachments":[],"parameters":[{"name":"Project","value":"api"}],"labels":[{"name":"language","value":"javascript"},{"name":"framework","value":"playwright"},{"name":"package","value":"api.applications-advanced.api.spec.js"},{"name":"titlePath","value":" > api > api\\applications-advanced.api.spec.js > Applications API Advanced Coverage"},{"name":"host","value":"DESKTOP-RH0M79P"},{"name":"thread","value":"pid-9736-worker-2"},{"name":"parentSuite","value":"api"},{"name":"suite","value":"api\\applications-advanced.api.spec.js"},{"name":"subSuite","value":"Applications API Advanced Coverage"}],"links":[],"start":1778060580411,"testCaseId":"dbecd50ca5ad3c18c7f55e62ed06aa06","fullName":"api/applications-advanced.api.spec.js:64:3","titlePath":["api","applications-advanced.api.spec.js","Applications API Advanced Coverage"],"stop":1778060580631}