{"uuid":"a4b90439-abac-4846-b074-4ace4d440e2d","name":"admin applications endpoint requires admin role","historyId":"dbecd50ca5ad3c18c7f55e62ed06aa06:259864bbb84e0941359ea9e4c0db04ac","status":"passed","statusDetails":{},"stage":"finished","steps":[{"status":"passed","statusDetails":{},"stage":"finished","steps":[{"status":"passed","statusDetails":{},"stage":"finished","steps":[{"status":"passed","statusDetails":{},"stage":"finished","steps":[],"attachments":[],"parameters":[],"name":"Create request context","start":1778060524925,"uuid":"6f1f7ee5-e1f4-47cd-bc2d-c1b46746da0b","stop":1778060524926}],"attachments":[],"parameters":[],"name":"Fixture \"apiClient\"","start":1778060524924,"uuid":"09323169-ac9b-4443-b23b-7c29f843a155","stop":1778060524927},{"status":"passed","statusDetails":{},"stage":"finished","steps":[],"attachments":[],"parameters":[],"name":"Fixture \"applicationsApi\"","start":1778060524928,"uuid":"e7d439a2-a237-4eb7-904c-abbfe7fbf5ab","stop":1778060524928},{"status":"passed","statusDetails":{},"stage":"finished","steps":[],"attachments":[],"parameters":[],"name":"Fixture \"authApi\"","start":1778060524928,"uuid":"3201f6bd-c5d0-42d4-a22a-8f357ba87bea","stop":1778060524928},{"status":"passed","statusDetails":{},"stage":"finished","steps":[{"status":"passed","statusDetails":{},"stage":"finished","steps":[],"attachments":[],"parameters":[],"name":"POST \"auth/login\"","start":1778060524931,"uuid":"36ae7376-7a65-4bab-901e-e0cb225c5a5c","stop":1778060525057},{"status":"passed","statusDetails":{},"stage":"finished","steps":[],"attachments":[],"parameters":[],"name":"{\"success\":true,\"message\":\"Login successful\",\"user\":{\"id\":\"4\",\"name\":\"QA Candidate\",\"email\":\"qa.candidate@truehire.com\",\"role\":\"user\"},\"token\":\"eyJhbGciOiJIUzI1NiIsInR5cCI6IkpXVCJ9.eyJ1c2VySWQiOiI0Iiwic3ViIjoiNCIsImVtYWlsIjoicWEuY2FuZGlkYXRlQHRydWVoaXJlLmNvbSIsInJvbGUiOiJVU0VSIiwiaWF0IjoxNzc4MDYwNTI1LCJleHAiOjE3Nzg2NjUzMjV9.jwRocNzGpLbg43zhbmo4U9MOHC0lh5dMNR53jZkDT8s\"}","start":1778060525059,"uuid":"51021283-2692-4108-a025-53bb099babaa","stop":1778060525059},{"status":"passed","statusDetails":{},"stage":"finished","steps":[],"attachments":[],"parameters":[],"name":"No JWT token returned for candidate login","start":1778060525060,"uuid":"e9eff588-9ccc-41e9-a684-6a31838b310d","stop":1778060525060}],"attachments":[],"parameters":[],"name":"Fixture \"candidateToken\"","start":1778060524928,"uuid":"45ecee27-c164-4ddc-afff-2d78055b8078","stop":1778060525060},{"status":"passed","statusDetails":{},"stage":"finished","steps":[{"status":"passed","statusDetails":{},"stage":"finished","steps":[],"attachments":[],"parameters":[],"name":"POST \"auth/login\"","start":1778060525062,"uuid":"3340418e-f383-461d-aa1a-ea08296b76d2","stop":1778060525220},{"status":"passed","statusDetails":{},"stage":"finished","steps":[],"attachments":[],"parameters":[],"name":"{\"success\":true,\"message\":\"Login successful\",\"user\":{\"id\":\"0\",\"name\":\"TrueHire Admin\",\"email\":\"admin@truehire.com\",\"role\":\"admin\"},\"token\":\"eyJhbGciOiJIUzI1NiIsInR5cCI6IkpXVCJ9.eyJ1c2VySWQiOiIwIiwic3ViIjoiMCIsImlkIjoiMCIsImVtYWlsIjoiYWRtaW5AdHJ1ZWhpcmUuY29tIiwicm9sZSI6IkFETUlOIiwiaWF0IjoxNzc4MDYwNTI1LCJleHAiOjE3Nzg2NjUzMjV9.W47Co76FEssnMR9w-nvMIR4pRrTxdL5_v9U4B1ldtVw\"}","start":1778060525222,"uuid":"4cce1976-2613-40bb-b530-86a6c0cc93ec","stop":1778060525222},{"status":"passed","statusDetails":{},"stage":"finished","steps":[],"attachments":[],"parameters":[],"name":"No JWT token returned for admin login","start":1778060525223,"uuid":"cf32a52e-3931-4721-a2ec-212d9948b880","stop":1778060525223}],"attachments":[],"parameters":[],"name":"Fixture \"adminToken\"","start":1778060525060,"uuid":"0f325647-12b9-4b44-87bd-462e8258c755","stop":1778060525223}],"attachments":[],"parameters":[],"name":"Before Hooks","start":1778060524919,"uuid":"edf67473-b32b-4a16-9593-5007111f04e5","stop":1778060525224},{"status":"passed","statusDetails":{},"stage":"finished","steps":[],"attachments":[],"parameters":[],"start":1778060525226,"name":"GET \"admin/applications\"","uuid":"7eec3f0b-016a-42c9-ac31-abf50eba53fe","stop":1778060525240},{"status":"passed","statusDetails":{},"stage":"finished","steps":[],"attachments":[],"parameters":[],"start":1778060525243,"name":"\n{\"success\":false,\"message\":\"You do not have permission to access this resource\"}","uuid":"f32672e4-d3c7-44cd-be8a-99636a869121","stop":1778060525234},{"status":"passed","statusDetails":{},"stage":"finished","steps":[],"attachments":[],"parameters":[],"start":1778060525245,"name":"GET \"admin/applications\"","uuid":"d1c61be4-ca1d-4e3f-b13d-ef1710a99424","stop":1778060525258},{"status":"passed","statusDetails":{},"stage":"finished","steps":[],"attachments":[],"parameters":[],"start":1778060525261,"name":"\n{\"success\":true,\"applications\":[{\"id\":\"20\",\"user_id\":\"4\",\"job_id\":\"57\",\"status\":\"applied\",\"applied_at\":\"2026-05-06T09:42:05.000Z\",\"updated_at\":\"2026-05-06T09:42:05.000Z\",\"users\":{\"name\":\"QA Candidate\",\"email\":\"qa.candidate@truehire.com\"},\"jobs\":{\"title\":\"QA Automation Engineer 7jam8b\",\"company\":\"TrueHire QA Labs\",\"recruiters\":{\"name\":\"QA Recruiter\"}},\"job_title\":\"QA Automation Engineer 7jam8b\",\"company\":\"TrueHire QA Labs\",\"user_name\":\"QA Candidate\",\"user_email\":\"qa.candidate@truehire.com\",\"recruiter_name\":\"QA Recruiter\"},{\"id\":\"21\",\"user_id\":\"4\",\"job_id\":\"58\",\"status\":\"applied\",\"applied_at\":\"2026-05-06T09:42:05.000Z\",\"updated_at\":\"2026-05-06T09:42:05.000Z\",\"users\":{\"name\":\"QA Candidate\",\"email\":\"qa.candidate@truehire.com\"},\"jobs\":{\"title\":\"QA Automation Engineer wg2s4z\",\"company\":\"TrueHire QA Labs\",\"recruiters\":{\"name\":\"QA Recruiter\"}},\"job_title\":\"QA Automation Engineer wg2s4z\",\"company\":\"TrueHire QA Labs\",\"user_name\":\"QA Candidate\",\"user_email\":\"qa.candidate@truehire.com\",\"recruiter_name\":\"QA Recruiter\"},{\"id\":\"18\",\"user_id\":\"4\",\"job_id\":\"49\",\"status\":\"applied\",\"applied_at\":\"2026-05-06T09:14:34.000Z\",\"updated_at\":\"2026-05-06T09:14:34.000Z\",\"users\":{\"name\":\"QA Candidate\",\"email\":\"qa.candidate@truehire.com\"},\"jobs\":{\"title\":\"QA Automation Engineer w5mn09\",\"company\":\"TrueHire QA Labs\",\"recruiters\":{\"name\":\"QA Recruiter\"}},\"job_title\":\"QA Automation Engineer w5mn09\",\"company\":\"TrueHire QA Labs\",\"user_name\":\"QA Candidate\",\"user_email\":\"qa.candidate@truehire.com\",\"recruiter_name\":\"QA Recruiter\"},{\"id\":\"19\",\"user_id\":\"4\",\"job_id\":\"50\",\"status\":\"applied\",\"applied_at\":\"2026-05-06T09:14:34.000Z\",\"updated_at\":\"2026-05-06T09:14:34.000Z\",\"users\":{\"name\":\"QA Candidate\",\"email\":\"qa.candidate@truehire.com\"},\"jobs\":{\"title\":\"QA Automation Engineer 1pasbt\",\"company\":\"TrueHire QA Labs\",\"recruiters\":{\"name\":\"QA Recruiter\"}},\"job_title\":\"QA Automation Engineer 1pasbt\",\"company\":\"TrueHire QA Labs\",\"user_name\":\"QA Candidate\",\"user_email\":\"qa.candidate@truehire.com\",\"recruiter_name\":\"QA Recruiter\"},{\"id\":\"16\",\"user_id\":\"4\",\"job_id\":\"39\",\"status\":\"applied\",\"applied_at\":\"2026-05-06T09:14:26.000Z\",\"updated_at\":\"2026-05-06T09:14:26.000Z\",\"users\":{\"name\":\"QA Candidate\",\"email\":\"qa.candidate@truehire.com\"},\"jobs\":{\"title\":\"QA Automation Engineer 3k36p7\",\"company\":\"TrueHire QA Labs\",\"recruiters\":{\"name\":\"QA Recruiter\"}},\"job_title\":\"QA Automation Engineer 3k36p7\",\"company\":\"TrueHire QA Labs\",\"user_name\":\"QA Candidate\",\"user_email\":\"qa.candidate@truehire.com\",\"recruiter_name\":\"QA Recruiter\"},{\"id\":\"17\",\"user_id\":\"4\",\"job_id\":\"42\",\"status\":\"applied\",\"applied_at\":\"2026-05-06T09:14:26.000Z\",\"updated_at\":\"2026-05-06T09:14:26.000Z\",\"users\":{\"name\":\"QA Candidate\",\"email\":\"qa.candidate@truehire.com\"},\"jobs\":{\"title\":\"QA Automation Engineer 77um56\",\"company\":\"TrueHire QA Labs\",\"recruiters\":{\"name\":\"QA Recruiter\"}},\"job_title\":\"QA Automation Engineer 77um56\",\"company\":\"TrueHire QA Labs\",\"user_name\":\"QA Candidate\",\"user_email\":\"qa.candidate@truehire.com\",\"recruiter_name\":\"QA Recruiter\"},{\"id\":\"14\",\"user_id\":\"4\",\"job_id\":\"30\",\"status\":\"applied\",\"applied_at\":\"2026-05-06T09:09:37.000Z\",\"updated_at\":\"2026-05-06T09:09:37.000Z\",\"users\":{\"name\":\"QA Candidate\",\"email\":\"qa.candidate@truehire.com\"},\"jobs\":{\"title\":\"QA Automation Engineer gnoefi\",\"company\":\"TrueHire QA Labs\",\"recruiters\":{\"name\":\"QA Recruiter\"}},\"job_title\":\"QA Automation Engineer gnoefi\",\"company\":\"TrueHire QA Labs\",\"user_name\":\"QA Candidate\",\"user_email\":\"qa.candidate@truehire.com\",\"recruiter_name\":\"QA Recruiter\"},{\"id\":\"15\",\"user_id\":\"4\",\"job_id\":\"33\",\"status\":\"applied\",\"applied_at\":\"2026-05-06T09:09:37.000Z\",\"updated_at\":\"2026-05-06T09:09:37.000Z\",\"users\":{\"name\":\"QA Candidate\",\"email\":\"qa.candidate@truehire.com\"},\"jobs\":{\"title\":\"QA Automation Engineer 3c82wc\",\"company\":\"TrueHire QA Labs\",\"recruiters\":{\"name\":\"QA Recruiter\"}},\"job_title\":\"QA Automation Engineer 3c82wc\",\"company\":\"TrueHire QA Labs\",\"user_name\":\"QA Candidate\",\"user_email\":\"qa.candidate@truehire.com\",\"recruiter_name\":\"QA Recruiter\"},{\"id\":\"12\",\"user_id\":\"4\",\"job_id\":\"22\",\"status\":\"applied\",\"applied_at\":\"2026-05-06T09:07:25.000Z\",\"updated_at\":\"2026-05-06T09:07:25.000Z\",\"users\":{\"name\":\"QA Candidate\",\"email\":\"qa.candidate@truehire.com\"},\"jobs\":{\"title\":\"QA Automation Engineer ax71rm\",\"company\":\"TrueHire QA Labs\",\"recruiters\":{\"name\":\"QA Recruiter\"}},\"job_title\":\"QA Automation Engineer ax71rm\",\"company\":\"TrueHire QA Labs\",\"user_name\":\"QA Candidate\",\"user_email\":\"qa.candidate@truehire.com\",\"recruiter_name\":\"QA Recruiter\"},{\"id\":\"13\",\"user_id\":\"4\",\"job_id\":\"24\",\"status\":\"applied\",\"applied_at\":\"2026-05-06T09:07:25.000Z\",\"updated_at\":\"2026-05-06T09:07:25.000Z\",\"users\":{\"name\":\"QA Candidate\",\"email\":\"qa.candidate@truehire.com\"},\"jobs\":{\"title\":\"QA Automation Engineer 2a0kc5\",\"company\":\"TrueHire QA Labs\",\"recruiters\":{\"name\":\"QA Recruiter\"}},\"job_title\":\"QA Automation Engineer 2a0kc5\",\"company\":\"TrueHire QA Labs\",\"user_name\":\"QA Candidate\",\"user_email\":\"qa.candidate@truehire.com\",\"recruiter_name\":\"QA Recruiter\"}],\"pagination\":{\"page\":1,\"limit\":10,\"total\":13,\"pages\":2}}","uuid":"d740970c-9451-44e3-adb1-b9fdf2c3b2b3","stop":1778060525253},{"status":"passed","statusDetails":{},"stage":"finished","steps":[{"status":"passed","statusDetails":{},"stage":"finished","steps":[],"attachments":[],"parameters":[],"name":"Fixture \"adminToken\"","start":1778060525263,"uuid":"0d059c8d-45dc-4de5-9f45-404a54b3b57a","stop":1778060525263},{"status":"passed","statusDetails":{},"stage":"finished","steps":[],"attachments":[],"parameters":[],"name":"Fixture \"candidateToken\"","start":1778060525263,"uuid":"4aa61de1-c789-44be-8dda-f0583a4a2dc0","stop":1778060525263},{"status":"passed","statusDetails":{},"stage":"finished","steps":[],"attachments":[],"parameters":[],"name":"Fixture \"authApi\"","start":1778060525264,"uuid":"c6091ebc-8e90-46f2-a9a1-c2bfd2bfeb4f","stop":1778060525264},{"status":"passed","statusDetails":{},"stage":"finished","steps":[],"attachments":[],"parameters":[],"name":"Fixture \"applicationsApi\"","start":1778060525264,"uuid":"8bebdc74-9ed0-4035-9800-34d5cc3f19e3","stop":1778060525265},{"status":"passed","statusDetails":{},"stage":"finished","steps":[],"attachments":[],"parameters":[],"name":"Fixture \"apiClient\"","start":1778060525265,"uuid":"303e861d-db21-4e43-9bf0-4a5b4606e541","stop":1778060525270}],"attachments":[],"parameters":[],"name":"After Hooks","start":1778060525262,"uuid":"80db436d-749f-48ab-b5c2-e06b27ee13cf","stop":1778060525278}],"attachments":[],"parameters":[{"name":"Project","value":"api"}],"labels":[{"name":"language","value":"javascript"},{"name":"framework","value":"playwright"},{"name":"package","value":"api.applications-advanced.api.spec.js"},{"name":"titlePath","value":" > api > api\\applications-advanced.api.spec.js > Applications API Advanced Coverage"},{"name":"host","value":"DESKTOP-RH0M79P"},{"name":"thread","value":"pid-2524-worker-2"},{"name":"parentSuite","value":"api"},{"name":"suite","value":"api\\applications-advanced.api.spec.js"},{"name":"subSuite","value":"Applications API Advanced Coverage"}],"links":[],"start":1778060524925,"testCaseId":"dbecd50ca5ad3c18c7f55e62ed06aa06","fullName":"api/applications-advanced.api.spec.js:64:3","titlePath":["api","applications-advanced.api.spec.js","Applications API Advanced Coverage"],"stop":1778060525266}