{"uuid":"d2934a42-9f3e-4379-be8d-476286d8159a","name":"admin jobs endpoint can serve report-style data","historyId":"fd90fa2e28232a1abb94df3c773745b8:259864bbb84e0941359ea9e4c0db04ac","status":"passed","statusDetails":{},"stage":"finished","steps":[{"status":"passed","statusDetails":{},"stage":"finished","steps":[{"status":"passed","statusDetails":{},"stage":"finished","steps":[{"status":"passed","statusDetails":{},"stage":"finished","steps":[],"attachments":[],"parameters":[],"name":"Create request context","start":1778058864934,"uuid":"c74ed6e8-bcd3-4e48-9c65-0d870e11fb16","stop":1778058864939}],"attachments":[],"parameters":[],"name":"Fixture \"apiClient\"","start":1778058864927,"uuid":"9e3efe5c-9e46-4495-a83a-3a98a5657bb3","stop":1778058864942},{"status":"passed","statusDetails":{},"stage":"finished","steps":[],"attachments":[],"parameters":[],"name":"Fixture \"adminApi\"","start":1778058864943,"uuid":"0c6e5c7d-1759-4fdd-9322-0ffe5a65f258","stop":1778058864943},{"status":"passed","statusDetails":{},"stage":"finished","steps":[],"attachments":[],"parameters":[],"name":"Fixture \"authApi\"","start":1778058864943,"uuid":"f1dbd2bf-acaf-44c0-ab0a-4d0ffb146c24","stop":1778058864943},{"status":"passed","statusDetails":{},"stage":"finished","steps":[{"status":"passed","statusDetails":{},"stage":"finished","steps":[],"attachments":[],"parameters":[],"name":"POST \"auth/login\"","start":1778058864947,"uuid":"261ab6d4-9f05-4102-bc9b-05f3daff7bd5","stop":1778058865019},{"status":"passed","statusDetails":{},"stage":"finished","steps":[],"attachments":[],"parameters":[],"name":"{\"success\":true,\"message\":\"Login successful\",\"user\":{\"id\":\"0\",\"name\":\"TrueHire Admin\",\"email\":\"admin@truehire.com\",\"role\":\"admin\"},\"token\":\"eyJhbGciOiJIUzI1NiIsInR5cCI6IkpXVCJ9.eyJ1c2VySWQiOiIwIiwic3ViIjoiMCIsImlkIjoiMCIsImVtYWlsIjoiYWRtaW5AdHJ1ZWhpcmUuY29tIiwicm9sZSI6IkFETUlOIiwiaWF0IjoxNzc4MDU4ODY1LCJleHAiOjE3Nzg2NjM2NjV9.ooPaBL3kNKBhONAyjm-y3c6sKLNKq2omX5Gr_qzLL1o\"}","start":1778058865024,"uuid":"6133ddca-a4f9-45b6-b3c4-184cc4c474a3","stop":1778058865025},{"status":"passed","statusDetails":{},"stage":"finished","steps":[],"attachments":[],"parameters":[],"name":"No JWT token returned for admin login","start":1778058865027,"uuid":"b5082f63-0777-4c94-9cd8-09dde8500891","stop":1778058865028}],"attachments":[],"parameters":[],"name":"Fixture \"adminToken\"","start":1778058864944,"uuid":"ea97c0e7-a603-4ef9-8ce7-a082ea399c7e","stop":1778058865028}],"attachments":[],"parameters":[],"name":"Before Hooks","start":1778058864899,"uuid":"703cff3a-6583-443b-a1c7-16db13ac1f9c","stop":1778058865028},{"status":"passed","statusDetails":{},"stage":"finished","steps":[],"attachments":[],"parameters":[],"start":1778058865031,"name":"GET \"admin/jobs?page=1&limit=10&status=OPEN\"","uuid":"b94a2712-e3e4-4e37-adc0-0316b89fc51c","stop":1778058865046},{"status":"passed","statusDetails":{},"stage":"finished","steps":[],"attachments":[],"parameters":[],"start":1778058865051,"name":"{\"success\":true,\"jobs\":[{\"id\":\"30\",\"title\":\"QA Automation Engineer gnoefi\",\"company\":\"TrueHire QA Labs\",\"location\":\"Bengaluru\",\"status\":\"open\",\"employment_type\":\"FULL_TIME\",\"created_at\":\"2026-05-06T09:09:37.000Z\",\"recruiter_id\":\"6\",\"applications_count\":1},{\"id\":\"31\",\"title\":\"QA Automation Engineer 359auf\",\"company\":\"TrueHire QA Labs\",\"location\":\"Bengaluru\",\"status\":\"open\",\"employment_type\":\"FULL_TIME\",\"created_at\":\"2026-05-06T09:09:37.000Z\",\"recruiter_id\":\"6\",\"applications_count\":0},{\"id\":\"32\",\"title\":\"QA Automation Engineer o42xfy\",\"company\":\"TrueHire QA Labs\",\"location\":\"Bengaluru\",\"status\":\"open\",\"employment_type\":\"FULL_TIME\",\"created_at\":\"2026-05-06T09:09:37.000Z\",\"recruiter_id\":\"6\",\"applications_count\":0},{\"id\":\"33\",\"title\":\"QA Automation Engineer 3c82wc\",\"company\":\"TrueHire QA Labs\",\"location\":\"Bengaluru\",\"status\":\"open\",\"employment_type\":\"FULL_TIME\",\"created_at\":\"2026-05-06T09:09:37.000Z\",\"recruiter_id\":\"6\",\"applications_count\":1},{\"id\":\"22\",\"title\":\"QA Automation Engineer ax71rm\",\"company\":\"TrueHire QA Labs\",\"location\":\"Bengaluru\",\"status\":\"open\",\"employment_type\":\"FULL_TIME\",\"created_at\":\"2026-05-06T09:07:25.000Z\",\"recruiter_id\":\"6\",\"applications_count\":1},{\"id\":\"23\",\"title\":\"QA Automation Engineer aqn9gf\",\"company\":\"TrueHire QA Labs\",\"location\":\"Bengaluru\",\"status\":\"open\",\"employment_type\":\"FULL_TIME\",\"created_at\":\"2026-05-06T09:07:25.000Z\",\"recruiter_id\":\"6\",\"applications_count\":0},{\"id\":\"24\",\"title\":\"QA Automation Engineer 2a0kc5\",\"company\":\"TrueHire QA Labs\",\"location\":\"Bengaluru\",\"status\":\"open\",\"employment_type\":\"FULL_TIME\",\"created_at\":\"2026-05-06T09:07:25.000Z\",\"recruiter_id\":\"6\",\"applications_count\":1},{\"id\":\"25\",\"title\":\"QA Automation Engineer xknai2\",\"company\":\"TrueHire QA Labs\",\"location\":\"Bengaluru\",\"status\":\"open\",\"employment_type\":\"FULL_TIME\",\"created_at\":\"2026-05-06T09:07:25.000Z\",\"recruiter_id\":\"6\",\"applications_count\":0},{\"id\":\"17\",\"title\":\"QA Automation Engineer jonwm6\",\"company\":\"TrueHire QA Labs\",\"location\":\"Bengaluru\",\"status\":\"open\",\"employment_type\":\"FULL_TIME\",\"created_at\":\"2026-05-06T09:05:55.000Z\",\"recruiter_id\":\"6\",\"applications_count\":0},{\"id\":\"14\",\"title\":\"QA Automation Engineer 0ul9jb\",\"company\":\"TrueHire QA Labs\",\"location\":\"Bengaluru\",\"status\":\"open\",\"employment_type\":\"FULL_TIME\",\"created_at\":\"2026-05-06T09:05:54.000Z\",\"recruiter_id\":\"6\",\"applications_count\":1}],\"pagination\":{\"page\":1,\"limit\":10,\"total\":18,\"pages\":2}}","uuid":"69ea3aa2-ca1f-4b40-b941-16950fde2596","stop":1778058865056},{"status":"passed","statusDetails":{},"stage":"finished","steps":[],"attachments":[],"parameters":[],"start":1778058865054,"name":"{\"success\":true,\"jobs\":[{\"id\":\"30\",\"title\":\"QA Automation Engineer gnoefi\",\"company\":\"TrueHire QA Labs\",\"location\":\"Bengaluru\",\"status\":\"open\",\"employment_type\":\"FULL_TIME\",\"created_at\":\"2026-05-06T09:09:37.000Z\",\"recruiter_id\":\"6\",\"applications_count\":1},{\"id\":\"31\",\"title\":\"QA Automation Engineer 359auf\",\"company\":\"TrueHire QA Labs\",\"location\":\"Bengaluru\",\"status\":\"open\",\"employment_type\":\"FULL_TIME\",\"created_at\":\"2026-05-06T09:09:37.000Z\",\"recruiter_id\":\"6\",\"applications_count\":0},{\"id\":\"32\",\"title\":\"QA Automation Engineer o42xfy\",\"company\":\"TrueHire QA Labs\",\"location\":\"Bengaluru\",\"status\":\"open\",\"employment_type\":\"FULL_TIME\",\"created_at\":\"2026-05-06T09:09:37.000Z\",\"recruiter_id\":\"6\",\"applications_count\":0},{\"id\":\"33\",\"title\":\"QA Automation Engineer 3c82wc\",\"company\":\"TrueHire QA Labs\",\"location\":\"Bengaluru\",\"status\":\"open\",\"employment_type\":\"FULL_TIME\",\"created_at\":\"2026-05-06T09:09:37.000Z\",\"recruiter_id\":\"6\",\"applications_count\":1},{\"id\":\"22\",\"title\":\"QA Automation Engineer ax71rm\",\"company\":\"TrueHire QA Labs\",\"location\":\"Bengaluru\",\"status\":\"open\",\"employment_type\":\"FULL_TIME\",\"created_at\":\"2026-05-06T09:07:25.000Z\",\"recruiter_id\":\"6\",\"applications_count\":1},{\"id\":\"23\",\"title\":\"QA Automation Engineer aqn9gf\",\"company\":\"TrueHire QA Labs\",\"location\":\"Bengaluru\",\"status\":\"open\",\"employment_type\":\"FULL_TIME\",\"created_at\":\"2026-05-06T09:07:25.000Z\",\"recruiter_id\":\"6\",\"applications_count\":0},{\"id\":\"24\",\"title\":\"QA Automation Engineer 2a0kc5\",\"company\":\"TrueHire QA Labs\",\"location\":\"Bengaluru\",\"status\":\"open\",\"employment_type\":\"FULL_TIME\",\"created_at\":\"2026-05-06T09:07:25.000Z\",\"recruiter_id\":\"6\",\"applications_count\":1},{\"id\":\"25\",\"title\":\"QA Automation Engineer xknai2\",\"company\":\"TrueHire QA Labs\",\"location\":\"Bengaluru\",\"status\":\"open\",\"employment_type\":\"FULL_TIME\",\"created_at\":\"2026-05-06T09:07:25.000Z\",\"recruiter_id\":\"6\",\"applications_count\":0},{\"id\":\"17\",\"title\":\"QA Automation Engineer jonwm6\",\"company\":\"TrueHire QA Labs\",\"location\":\"Bengaluru\",\"status\":\"open\",\"employment_type\":\"FULL_TIME\",\"created_at\":\"2026-05-06T09:05:55.000Z\",\"recruiter_id\":\"6\",\"applications_count\":0},{\"id\":\"14\",\"title\":\"QA Automation Engineer 0ul9jb\",\"company\":\"TrueHire QA Labs\",\"location\":\"Bengaluru\",\"status\":\"open\",\"employment_type\":\"FULL_TIME\",\"created_at\":\"2026-05-06T09:05:54.000Z\",\"recruiter_id\":\"6\",\"applications_count\":1}],\"pagination\":{\"page\":1,\"limit\":10,\"total\":18,\"pages\":2}}","uuid":"404a9cc3-13f1-4d30-9e99-544143af7a9d","stop":1778058865075},{"status":"passed","statusDetails":{},"stage":"finished","steps":[],"attachments":[],"parameters":[],"start":1778058865057,"name":"Expect \"toEqual\"","uuid":"eeb40adb-739f-493d-bf7c-bec4308c65ee","stop":1778058865058},{"status":"passed","statusDetails":{},"stage":"finished","steps":[],"attachments":[],"parameters":[],"start":1778058865060,"name":"Expect \"toBeTruthy\"","uuid":"1093fb56-c4ed-40a8-b7a6-fcfb065c4f9b","stop":1778058865099},{"status":"passed","statusDetails":{},"stage":"finished","steps":[],"attachments":[],"parameters":[],"start":1778058865061,"name":"Expect \"toBeTruthy\"","uuid":"386ba6e8-8960-45a9-be38-9e668e17d6bb","stop":1778058865105},{"status":"passed","statusDetails":{},"stage":"finished","steps":[{"status":"passed","statusDetails":{},"stage":"finished","steps":[],"attachments":[],"parameters":[],"name":"Fixture \"adminToken\"","start":1778058865064,"uuid":"b7b7c659-e600-42ee-85bc-d21e00dd2933","stop":1778058865064},{"status":"passed","statusDetails":{},"stage":"finished","steps":[],"attachments":[],"parameters":[],"name":"Fixture \"authApi\"","start":1778058865065,"uuid":"81e7452d-4a1e-4ab5-9c68-fc024496ae74","stop":1778058865065},{"status":"passed","statusDetails":{},"stage":"finished","steps":[],"attachments":[],"parameters":[],"name":"Fixture \"adminApi\"","start":1778058865065,"uuid":"b0977eda-3ad9-48a5-b00d-112cc5c9c553","stop":1778058865066},{"status":"passed","statusDetails":{},"stage":"finished","steps":[],"attachments":[],"parameters":[],"name":"Fixture \"apiClient\"","start":1778058865066,"uuid":"7bfe2562-b3aa-450b-849a-45eaeb1aec38","stop":1778058865077}],"attachments":[],"parameters":[],"name":"After Hooks","start":1778058865062,"uuid":"b77583d6-e67b-4676-83b8-10b84ac993fe","stop":1778058865091}],"attachments":[],"parameters":[{"name":"Project","value":"api"}],"labels":[{"name":"language","value":"javascript"},{"name":"framework","value":"playwright"},{"name":"package","value":"api.admin-advanced.api.spec.js"},{"name":"titlePath","value":" > api > api\\admin-advanced.api.spec.js > Admin API Advanced Coverage"},{"name":"host","value":"DESKTOP-RH0M79P"},{"name":"thread","value":"pid-7344-worker-3"},{"name":"parentSuite","value":"api"},{"name":"suite","value":"api\\admin-advanced.api.spec.js"},{"name":"subSuite","value":"Admin API Advanced Coverage"}],"links":[],"start":1778058864909,"testCaseId":"fd90fa2e28232a1abb94df3c773745b8","fullName":"api/admin-advanced.api.spec.js:33:3","titlePath":["api","admin-advanced.api.spec.js","Admin API Advanced Coverage"],"stop":1778058865059}