{"uuid":"de27aa74-3573-45f8-b352-552739858d27","name":"admin applications endpoint can serve application reports","historyId":"9b63fa8714e19fea570fa8be6934ef03:259864bbb84e0941359ea9e4c0db04ac","status":"passed","statusDetails":{},"stage":"finished","steps":[{"status":"passed","statusDetails":{},"stage":"finished","steps":[{"status":"passed","statusDetails":{},"stage":"finished","steps":[{"status":"passed","statusDetails":{},"stage":"finished","steps":[],"attachments":[],"parameters":[],"name":"Create request context","start":1778060579597,"uuid":"7c42ca45-dc46-4375-b190-9f598e4424c5","stop":1778060579598}],"attachments":[],"parameters":[],"name":"Fixture \"apiClient\"","start":1778060579597,"uuid":"b702ec37-171c-4bd5-aa00-657382f4a3d8","stop":1778060579598},{"status":"passed","statusDetails":{},"stage":"finished","steps":[],"attachments":[],"parameters":[],"name":"Fixture \"adminApi\"","start":1778060579599,"uuid":"2185b6fd-294d-4b3f-855c-29ab77744fb9","stop":1778060579599},{"status":"passed","statusDetails":{},"stage":"finished","steps":[],"attachments":[],"parameters":[],"name":"Fixture \"authApi\"","start":1778060579599,"uuid":"18752470-3bb1-4a7c-b196-ce0c3d947f40","stop":1778060579599},{"status":"passed","statusDetails":{},"stage":"finished","steps":[{"status":"passed","statusDetails":{},"stage":"finished","steps":[],"attachments":[],"parameters":[],"name":"POST \"auth/login\"","start":1778060579600,"uuid":"599c5676-e214-4f92-ad99-cb64d04b3ec6","stop":1778060579622},{"status":"passed","statusDetails":{},"stage":"finished","steps":[],"attachments":[],"parameters":[],"name":"{\"success\":true,\"message\":\"Login successful\",\"user\":{\"id\":\"0\",\"name\":\"TrueHire Admin\",\"email\":\"admin@truehire.com\",\"role\":\"admin\"},\"token\":\"eyJhbGciOiJIUzI1NiIsInR5cCI6IkpXVCJ9.eyJ1c2VySWQiOiIwIiwic3ViIjoiMCIsImlkIjoiMCIsImVtYWlsIjoiYWRtaW5AdHJ1ZWhpcmUuY29tIiwicm9sZSI6IkFETUlOIiwiaWF0IjoxNzc4MDYwNTc5LCJleHAiOjE3Nzg2NjUzNzl9.KaIAWXqpaQNQ-44gCUiKsM8NLu-C39DWKQpRg0dRmz0\"}","start":1778060579625,"uuid":"abc4b4d6-54e6-4a64-aa06-d285d73a73ca","stop":1778060579625},{"status":"passed","statusDetails":{},"stage":"finished","steps":[],"attachments":[],"parameters":[],"name":"No JWT token returned for admin login","start":1778060579626,"uuid":"2dc9edf2-a49d-4b51-93cf-ab7ad7981722","stop":1778060579627}],"attachments":[],"parameters":[],"name":"Fixture \"adminToken\"","start":1778060579599,"uuid":"bb13c490-957f-4965-89a3-7bc4e2a36813","stop":1778060579627}],"attachments":[],"parameters":[],"name":"Before Hooks","start":1778060579589,"uuid":"f2e80488-cedc-4d4e-b152-438b2e32b874","stop":1778060579627},{"status":"passed","statusDetails":{},"stage":"finished","steps":[],"attachments":[],"parameters":[],"start":1778060579629,"name":"GET \"admin/applications?page=1&limit=10\"","uuid":"80bb0f11-38a6-4927-8152-ef4d3b15e012","stop":1778060579649},{"status":"passed","statusDetails":{},"stage":"finished","steps":[],"attachments":[],"parameters":[],"start":1778060579651,"name":"{\"success\":true,\"applications\":[{\"id\":\"20\",\"user_id\":\"4\",\"job_id\":\"57\",\"status\":\"applied\",\"applied_at\":\"2026-05-06T09:42:05.000Z\",\"updated_at\":\"2026-05-06T09:42:05.000Z\",\"users\":{\"name\":\"QA Candidate\",\"email\":\"qa.candidate@truehire.com\"},\"jobs\":{\"title\":\"QA Automation Engineer 7jam8b\",\"company\":\"TrueHire QA Labs\",\"recruiters\":{\"name\":\"QA Recruiter\"}},\"job_title\":\"QA Automation Engineer 7jam8b\",\"company\":\"TrueHire QA Labs\",\"user_name\":\"QA Candidate\",\"user_email\":\"qa.candidate@truehire.com\",\"recruiter_name\":\"QA Recruiter\"},{\"id\":\"21\",\"user_id\":\"4\",\"job_id\":\"58\",\"status\":\"applied\",\"applied_at\":\"2026-05-06T09:42:05.000Z\",\"updated_at\":\"2026-05-06T09:42:05.000Z\",\"users\":{\"name\":\"QA Candidate\",\"email\":\"qa.candidate@truehire.com\"},\"jobs\":{\"title\":\"QA Automation Engineer wg2s4z\",\"company\":\"TrueHire QA Labs\",\"recruiters\":{\"name\":\"QA Recruiter\"}},\"job_title\":\"QA Automation Engineer wg2s4z\",\"company\":\"TrueHire QA Labs\",\"user_name\":\"QA Candidate\",\"user_email\":\"qa.candidate@truehire.com\",\"recruiter_name\":\"QA Recruiter\"},{\"id\":\"18\",\"user_id\":\"4\",\"job_id\":\"49\",\"status\":\"applied\",\"applied_at\":\"2026-05-06T09:14:34.000Z\",\"updated_at\":\"2026-05-06T09:14:34.000Z\",\"users\":{\"name\":\"QA Candidate\",\"email\":\"qa.candidate@truehire.com\"},\"jobs\":{\"title\":\"QA Automation Engineer w5mn09\",\"company\":\"TrueHire QA Labs\",\"recruiters\":{\"name\":\"QA Recruiter\"}},\"job_title\":\"QA Automation Engineer w5mn09\",\"company\":\"TrueHire QA Labs\",\"user_name\":\"QA Candidate\",\"user_email\":\"qa.candidate@truehire.com\",\"recruiter_name\":\"QA Recruiter\"},{\"id\":\"19\",\"user_id\":\"4\",\"job_id\":\"50\",\"status\":\"applied\",\"applied_at\":\"2026-05-06T09:14:34.000Z\",\"updated_at\":\"2026-05-06T09:14:34.000Z\",\"users\":{\"name\":\"QA Candidate\",\"email\":\"qa.candidate@truehire.com\"},\"jobs\":{\"title\":\"QA Automation Engineer 1pasbt\",\"company\":\"TrueHire QA Labs\",\"recruiters\":{\"name\":\"QA Recruiter\"}},\"job_title\":\"QA Automation Engineer 1pasbt\",\"company\":\"TrueHire QA Labs\",\"user_name\":\"QA Candidate\",\"user_email\":\"qa.candidate@truehire.com\",\"recruiter_name\":\"QA Recruiter\"},{\"id\":\"16\",\"user_id\":\"4\",\"job_id\":\"39\",\"status\":\"applied\",\"applied_at\":\"2026-05-06T09:14:26.000Z\",\"updated_at\":\"2026-05-06T09:14:26.000Z\",\"users\":{\"name\":\"QA Candidate\",\"email\":\"qa.candidate@truehire.com\"},\"jobs\":{\"title\":\"QA Automation Engineer 3k36p7\",\"company\":\"TrueHire QA Labs\",\"recruiters\":{\"name\":\"QA Recruiter\"}},\"job_title\":\"QA Automation Engineer 3k36p7\",\"company\":\"TrueHire QA Labs\",\"user_name\":\"QA Candidate\",\"user_email\":\"qa.candidate@truehire.com\",\"recruiter_name\":\"QA Recruiter\"},{\"id\":\"17\",\"user_id\":\"4\",\"job_id\":\"42\",\"status\":\"applied\",\"applied_at\":\"2026-05-06T09:14:26.000Z\",\"updated_at\":\"2026-05-06T09:14:26.000Z\",\"users\":{\"name\":\"QA Candidate\",\"email\":\"qa.candidate@truehire.com\"},\"jobs\":{\"title\":\"QA Automation Engineer 77um56\",\"company\":\"TrueHire QA Labs\",\"recruiters\":{\"name\":\"QA Recruiter\"}},\"job_title\":\"QA Automation Engineer 77um56\",\"company\":\"TrueHire QA Labs\",\"user_name\":\"QA Candidate\",\"user_email\":\"qa.candidate@truehire.com\",\"recruiter_name\":\"QA Recruiter\"},{\"id\":\"14\",\"user_id\":\"4\",\"job_id\":\"30\",\"status\":\"applied\",\"applied_at\":\"2026-05-06T09:09:37.000Z\",\"updated_at\":\"2026-05-06T09:09:37.000Z\",\"users\":{\"name\":\"QA Candidate\",\"email\":\"qa.candidate@truehire.com\"},\"jobs\":{\"title\":\"QA Automation Engineer gnoefi\",\"company\":\"TrueHire QA Labs\",\"recruiters\":{\"name\":\"QA Recruiter\"}},\"job_title\":\"QA Automation Engineer gnoefi\",\"company\":\"TrueHire QA Labs\",\"user_name\":\"QA Candidate\",\"user_email\":\"qa.candidate@truehire.com\",\"recruiter_name\":\"QA Recruiter\"},{\"id\":\"15\",\"user_id\":\"4\",\"job_id\":\"33\",\"status\":\"applied\",\"applied_at\":\"2026-05-06T09:09:37.000Z\",\"updated_at\":\"2026-05-06T09:09:37.000Z\",\"users\":{\"name\":\"QA Candidate\",\"email\":\"qa.candidate@truehire.com\"},\"jobs\":{\"title\":\"QA Automation Engineer 3c82wc\",\"company\":\"TrueHire QA Labs\",\"recruiters\":{\"name\":\"QA Recruiter\"}},\"job_title\":\"QA Automation Engineer 3c82wc\",\"company\":\"TrueHire QA Labs\",\"user_name\":\"QA Candidate\",\"user_email\":\"qa.candidate@truehire.com\",\"recruiter_name\":\"QA Recruiter\"},{\"id\":\"12\",\"user_id\":\"4\",\"job_id\":\"22\",\"status\":\"applied\",\"applied_at\":\"2026-05-06T09:07:25.000Z\",\"updated_at\":\"2026-05-06T09:07:25.000Z\",\"users\":{\"name\":\"QA Candidate\",\"email\":\"qa.candidate@truehire.com\"},\"jobs\":{\"title\":\"QA Automation Engineer ax71rm\",\"company\":\"TrueHire QA Labs\",\"recruiters\":{\"name\":\"QA Recruiter\"}},\"job_title\":\"QA Automation Engineer ax71rm\",\"company\":\"TrueHire QA Labs\",\"user_name\":\"QA Candidate\",\"user_email\":\"qa.candidate@truehire.com\",\"recruiter_name\":\"QA Recruiter\"},{\"id\":\"13\",\"user_id\":\"4\",\"job_id\":\"24\",\"status\":\"applied\",\"applied_at\":\"2026-05-06T09:07:25.000Z\",\"updated_at\":\"2026-05-06T09:07:25.000Z\",\"users\":{\"name\":\"QA Candidate\",\"email\":\"qa.candidate@truehire.com\"},\"jobs\":{\"title\":\"QA Automation Engineer 2a0kc5\",\"company\":\"TrueHire QA Labs\",\"recruiters\":{\"name\":\"QA Recruiter\"}},\"job_title\":\"QA Automation Engineer 2a0kc5\",\"company\":\"TrueHire QA Labs\",\"user_name\":\"QA Candidate\",\"user_email\":\"qa.candidate@truehire.com\",\"recruiter_name\":\"QA Recruiter\"}],\"pagination\":{\"page\":1,\"limit\":10,\"total\":13,\"pages\":2}}","uuid":"97a1bb88-6a1e-4edd-8099-f2ec71dcddcf","stop":1778060579652},{"status":"passed","statusDetails":{},"stage":"finished","steps":[],"attachments":[],"parameters":[],"start":1778060579656,"name":"{\"success\":true,\"applications\":[{\"id\":\"20\",\"user_id\":\"4\",\"job_id\":\"57\",\"status\":\"applied\",\"applied_at\":\"2026-05-06T09:42:05.000Z\",\"updated_at\":\"2026-05-06T09:42:05.000Z\",\"users\":{\"name\":\"QA Candidate\",\"email\":\"qa.candidate@truehire.com\"},\"jobs\":{\"title\":\"QA Automation Engineer 7jam8b\",\"company\":\"TrueHire QA Labs\",\"recruiters\":{\"name\":\"QA Recruiter\"}},\"job_title\":\"QA Automation Engineer 7jam8b\",\"company\":\"TrueHire QA Labs\",\"user_name\":\"QA Candidate\",\"user_email\":\"qa.candidate@truehire.com\",\"recruiter_name\":\"QA Recruiter\"},{\"id\":\"21\",\"user_id\":\"4\",\"job_id\":\"58\",\"status\":\"applied\",\"applied_at\":\"2026-05-06T09:42:05.000Z\",\"updated_at\":\"2026-05-06T09:42:05.000Z\",\"users\":{\"name\":\"QA Candidate\",\"email\":\"qa.candidate@truehire.com\"},\"jobs\":{\"title\":\"QA Automation Engineer wg2s4z\",\"company\":\"TrueHire QA Labs\",\"recruiters\":{\"name\":\"QA Recruiter\"}},\"job_title\":\"QA Automation Engineer wg2s4z\",\"company\":\"TrueHire QA Labs\",\"user_name\":\"QA Candidate\",\"user_email\":\"qa.candidate@truehire.com\",\"recruiter_name\":\"QA Recruiter\"},{\"id\":\"18\",\"user_id\":\"4\",\"job_id\":\"49\",\"status\":\"applied\",\"applied_at\":\"2026-05-06T09:14:34.000Z\",\"updated_at\":\"2026-05-06T09:14:34.000Z\",\"users\":{\"name\":\"QA Candidate\",\"email\":\"qa.candidate@truehire.com\"},\"jobs\":{\"title\":\"QA Automation Engineer w5mn09\",\"company\":\"TrueHire QA Labs\",\"recruiters\":{\"name\":\"QA Recruiter\"}},\"job_title\":\"QA Automation Engineer w5mn09\",\"company\":\"TrueHire QA Labs\",\"user_name\":\"QA Candidate\",\"user_email\":\"qa.candidate@truehire.com\",\"recruiter_name\":\"QA Recruiter\"},{\"id\":\"19\",\"user_id\":\"4\",\"job_id\":\"50\",\"status\":\"applied\",\"applied_at\":\"2026-05-06T09:14:34.000Z\",\"updated_at\":\"2026-05-06T09:14:34.000Z\",\"users\":{\"name\":\"QA Candidate\",\"email\":\"qa.candidate@truehire.com\"},\"jobs\":{\"title\":\"QA Automation Engineer 1pasbt\",\"company\":\"TrueHire QA Labs\",\"recruiters\":{\"name\":\"QA Recruiter\"}},\"job_title\":\"QA Automation Engineer 1pasbt\",\"company\":\"TrueHire QA Labs\",\"user_name\":\"QA Candidate\",\"user_email\":\"qa.candidate@truehire.com\",\"recruiter_name\":\"QA Recruiter\"},{\"id\":\"16\",\"user_id\":\"4\",\"job_id\":\"39\",\"status\":\"applied\",\"applied_at\":\"2026-05-06T09:14:26.000Z\",\"updated_at\":\"2026-05-06T09:14:26.000Z\",\"users\":{\"name\":\"QA Candidate\",\"email\":\"qa.candidate@truehire.com\"},\"jobs\":{\"title\":\"QA Automation Engineer 3k36p7\",\"company\":\"TrueHire QA Labs\",\"recruiters\":{\"name\":\"QA Recruiter\"}},\"job_title\":\"QA Automation Engineer 3k36p7\",\"company\":\"TrueHire QA Labs\",\"user_name\":\"QA Candidate\",\"user_email\":\"qa.candidate@truehire.com\",\"recruiter_name\":\"QA Recruiter\"},{\"id\":\"17\",\"user_id\":\"4\",\"job_id\":\"42\",\"status\":\"applied\",\"applied_at\":\"2026-05-06T09:14:26.000Z\",\"updated_at\":\"2026-05-06T09:14:26.000Z\",\"users\":{\"name\":\"QA Candidate\",\"email\":\"qa.candidate@truehire.com\"},\"jobs\":{\"title\":\"QA Automation Engineer 77um56\",\"company\":\"TrueHire QA Labs\",\"recruiters\":{\"name\":\"QA Recruiter\"}},\"job_title\":\"QA Automation Engineer 77um56\",\"company\":\"TrueHire QA Labs\",\"user_name\":\"QA Candidate\",\"user_email\":\"qa.candidate@truehire.com\",\"recruiter_name\":\"QA Recruiter\"},{\"id\":\"14\",\"user_id\":\"4\",\"job_id\":\"30\",\"status\":\"applied\",\"applied_at\":\"2026-05-06T09:09:37.000Z\",\"updated_at\":\"2026-05-06T09:09:37.000Z\",\"users\":{\"name\":\"QA Candidate\",\"email\":\"qa.candidate@truehire.com\"},\"jobs\":{\"title\":\"QA Automation Engineer gnoefi\",\"company\":\"TrueHire QA Labs\",\"recruiters\":{\"name\":\"QA Recruiter\"}},\"job_title\":\"QA Automation Engineer gnoefi\",\"company\":\"TrueHire QA Labs\",\"user_name\":\"QA Candidate\",\"user_email\":\"qa.candidate@truehire.com\",\"recruiter_name\":\"QA Recruiter\"},{\"id\":\"15\",\"user_id\":\"4\",\"job_id\":\"33\",\"status\":\"applied\",\"applied_at\":\"2026-05-06T09:09:37.000Z\",\"updated_at\":\"2026-05-06T09:09:37.000Z\",\"users\":{\"name\":\"QA Candidate\",\"email\":\"qa.candidate@truehire.com\"},\"jobs\":{\"title\":\"QA Automation Engineer 3c82wc\",\"company\":\"TrueHire QA Labs\",\"recruiters\":{\"name\":\"QA Recruiter\"}},\"job_title\":\"QA Automation Engineer 3c82wc\",\"company\":\"TrueHire QA Labs\",\"user_name\":\"QA Candidate\",\"user_email\":\"qa.candidate@truehire.com\",\"recruiter_name\":\"QA Recruiter\"},{\"id\":\"12\",\"user_id\":\"4\",\"job_id\":\"22\",\"status\":\"applied\",\"applied_at\":\"2026-05-06T09:07:25.000Z\",\"updated_at\":\"2026-05-06T09:07:25.000Z\",\"users\":{\"name\":\"QA Candidate\",\"email\":\"qa.candidate@truehire.com\"},\"jobs\":{\"title\":\"QA Automation Engineer ax71rm\",\"company\":\"TrueHire QA Labs\",\"recruiters\":{\"name\":\"QA Recruiter\"}},\"job_title\":\"QA Automation Engineer ax71rm\",\"company\":\"TrueHire QA Labs\",\"user_name\":\"QA Candidate\",\"user_email\":\"qa.candidate@truehire.com\",\"recruiter_name\":\"QA Recruiter\"},{\"id\":\"13\",\"user_id\":\"4\",\"job_id\":\"24\",\"status\":\"applied\",\"applied_at\":\"2026-05-06T09:07:25.000Z\",\"updated_at\":\"2026-05-06T09:07:25.000Z\",\"users\":{\"name\":\"QA Candidate\",\"email\":\"qa.candidate@truehire.com\"},\"jobs\":{\"title\":\"QA Automation Engineer 2a0kc5\",\"company\":\"TrueHire QA Labs\",\"recruiters\":{\"name\":\"QA Recruiter\"}},\"job_title\":\"QA Automation Engineer 2a0kc5\",\"company\":\"TrueHire QA Labs\",\"user_name\":\"QA Candidate\",\"user_email\":\"qa.candidate@truehire.com\",\"recruiter_name\":\"QA Recruiter\"}],\"pagination\":{\"page\":1,\"limit\":10,\"total\":13,\"pages\":2}}","uuid":"f7898a2f-16be-4312-ac40-82d056c4d9cf","stop":1778060579657},{"status":"passed","statusDetails":{},"stage":"finished","steps":[],"attachments":[],"parameters":[],"start":1778060579660,"name":"Expect \"toEqual\"","uuid":"5a26f3c8-8c60-44a8-bbd1-4ed5e6d203f8","stop":1778060579661},{"status":"passed","statusDetails":{},"stage":"finished","steps":[],"attachments":[],"parameters":[],"start":1778060579663,"name":"Expect \"toBeTruthy\"","uuid":"e884f240-216a-4075-8f16-3debcf4668b6","stop":1778060579664},{"status":"passed","statusDetails":{},"stage":"finished","steps":[],"attachments":[],"parameters":[],"start":1778060579664,"name":"Expect \"toBeTruthy\"","uuid":"bfdd4160-c660-4300-831f-eed187d7645c","stop":1778060579665},{"status":"passed","statusDetails":{},"stage":"finished","steps":[{"status":"passed","statusDetails":{},"stage":"finished","steps":[],"attachments":[],"parameters":[],"name":"Fixture \"adminToken\"","start":1778060579666,"uuid":"7222f03c-8306-4417-a956-873d7a438293","stop":1778060579666},{"status":"passed","statusDetails":{},"stage":"finished","steps":[],"attachments":[],"parameters":[],"name":"Fixture \"authApi\"","start":1778060579667,"uuid":"abb83060-3af1-4a63-9d57-d8d76daf3378","stop":1778060579667},{"status":"passed","statusDetails":{},"stage":"finished","steps":[],"attachments":[],"parameters":[],"name":"Fixture \"adminApi\"","start":1778060579667,"uuid":"5557a5f2-2404-4e91-9032-b0e5d180042a","stop":1778060579667},{"status":"passed","statusDetails":{},"stage":"finished","steps":[],"attachments":[],"parameters":[],"name":"Fixture \"apiClient\"","start":1778060579668,"uuid":"9aecc2b8-81f7-4bd1-b800-5912391c7a7f","stop":1778060579674}],"attachments":[],"parameters":[],"name":"After Hooks","start":1778060579665,"uuid":"ca3107da-f6d0-4458-a8b1-10413a5ad97e","stop":1778060579684}],"attachments":[],"parameters":[{"name":"Project","value":"api"}],"labels":[{"name":"language","value":"javascript"},{"name":"framework","value":"playwright"},{"name":"package","value":"api.admin-advanced.api.spec.js"},{"name":"titlePath","value":" > api > api\\admin-advanced.api.spec.js > Admin API Advanced Coverage"},{"name":"host","value":"DESKTOP-RH0M79P"},{"name":"thread","value":"pid-9736-worker-0"},{"name":"parentSuite","value":"api"},{"name":"suite","value":"api\\admin-advanced.api.spec.js"},{"name":"subSuite","value":"Admin API Advanced Coverage"}],"links":[],"start":1778060579595,"testCaseId":"9b63fa8714e19fea570fa8be6934ef03","fullName":"api/admin-advanced.api.spec.js:39:3","titlePath":["api","admin-advanced.api.spec.js","Admin API Advanced Coverage"],"stop":1778060579670}