{"uuid":"fedc7ec1-6c05-485c-93d1-19b8ba67b938","name":"admin applications endpoint requires admin role","historyId":"dbecd50ca5ad3c18c7f55e62ed06aa06:259864bbb84e0941359ea9e4c0db04ac","status":"passed","statusDetails":{},"stage":"finished","steps":[{"status":"passed","statusDetails":{},"stage":"finished","steps":[{"status":"passed","statusDetails":{},"stage":"finished","steps":[{"status":"passed","statusDetails":{},"stage":"finished","steps":[],"attachments":[],"parameters":[],"name":"Create request context","start":1778058874156,"uuid":"1feae591-14a6-4f57-be04-012d288b8acd","stop":1778058874157}],"attachments":[],"parameters":[],"name":"Fixture \"apiClient\"","start":1778058874156,"uuid":"03beb55d-8ec3-4b04-b029-8c4dff67f4f0","stop":1778058874161},{"status":"passed","statusDetails":{},"stage":"finished","steps":[],"attachments":[],"parameters":[],"name":"Fixture \"applicationsApi\"","start":1778058874162,"uuid":"a61b4cd0-1fad-4f45-9839-f80f5a6f0f70","stop":1778058874162},{"status":"passed","statusDetails":{},"stage":"finished","steps":[],"attachments":[],"parameters":[],"name":"Fixture \"authApi\"","start":1778058874163,"uuid":"3eaca93d-2693-4002-a096-527f21f46625","stop":1778058874163},{"status":"passed","statusDetails":{},"stage":"finished","steps":[{"status":"passed","statusDetails":{},"stage":"finished","steps":[],"attachments":[],"parameters":[],"name":"POST \"auth/login\"","start":1778058874165,"uuid":"eba8696c-76cb-4c25-9aa4-d0e05169acc7","stop":1778058874288},{"status":"passed","statusDetails":{},"stage":"finished","steps":[],"attachments":[],"parameters":[],"name":"{\"success\":true,\"message\":\"Login successful\",\"user\":{\"id\":\"4\",\"name\":\"QA Candidate\",\"email\":\"qa.candidate@truehire.com\",\"role\":\"user\"},\"token\":\"eyJhbGciOiJIUzI1NiIsInR5cCI6IkpXVCJ9.eyJ1c2VySWQiOiI0Iiwic3ViIjoiNCIsImVtYWlsIjoicWEuY2FuZGlkYXRlQHRydWVoaXJlLmNvbSIsInJvbGUiOiJVU0VSIiwiaWF0IjoxNzc4MDU4ODc0LCJleHAiOjE3Nzg2NjM2NzR9.naSQP5tBdkKeWWDH9b1uR9MtwitraBOSdn_48mn9sPE\"}","start":1778058874289,"uuid":"da82197a-5855-4dc5-b024-d5a8ebbfeca9","stop":1778058874289},{"status":"passed","statusDetails":{},"stage":"finished","steps":[],"attachments":[],"parameters":[],"name":"No JWT token returned for candidate login","start":1778058874294,"uuid":"1ec6cf9b-e8b0-4d6f-a1d5-dc0ddfc0fa4c","stop":1778058874294}],"attachments":[],"parameters":[],"name":"Fixture \"candidateToken\"","start":1778058874163,"uuid":"5b4debf1-3d7a-46ae-a658-379807e452eb","stop":1778058874294},{"status":"passed","statusDetails":{},"stage":"finished","steps":[{"status":"passed","statusDetails":{},"stage":"finished","steps":[],"attachments":[],"parameters":[],"name":"POST \"auth/login\"","start":1778058874299,"uuid":"1c6b2854-9e54-4fe9-bc72-92ec820718e3","stop":1778058874386},{"status":"passed","statusDetails":{},"stage":"finished","steps":[],"attachments":[],"parameters":[],"name":"{\"success\":true,\"message\":\"Login successful\",\"user\":{\"id\":\"0\",\"name\":\"TrueHire Admin\",\"email\":\"admin@truehire.com\",\"role\":\"admin\"},\"token\":\"eyJhbGciOiJIUzI1NiIsInR5cCI6IkpXVCJ9.eyJ1c2VySWQiOiIwIiwic3ViIjoiMCIsImlkIjoiMCIsImVtYWlsIjoiYWRtaW5AdHJ1ZWhpcmUuY29tIiwicm9sZSI6IkFETUlOIiwiaWF0IjoxNzc4MDU4ODc0LCJleHAiOjE3Nzg2NjM2NzR9.zPgfn-4wpXD7bqHoMCl9htHW5bS-51MaHTHluVlGlYE\"}","start":1778058874388,"uuid":"938d3e89-5323-4d30-8a14-66144d72a5da","stop":1778058874388},{"status":"passed","statusDetails":{},"stage":"finished","steps":[],"attachments":[],"parameters":[],"name":"No JWT token returned for admin login","start":1778058874390,"uuid":"267c8110-9060-4eea-9735-9a45d6e6ca2c","stop":1778058874390}],"attachments":[],"parameters":[],"name":"Fixture \"adminToken\"","start":1778058874295,"uuid":"0032902e-e1a1-46ce-8a1b-5b0726667d6d","stop":1778058874391}],"attachments":[],"parameters":[],"name":"Before Hooks","start":1778058874151,"uuid":"dab2bb48-0f1a-44e8-bcd1-0dccbac2f5c9","stop":1778058874391},{"status":"passed","statusDetails":{},"stage":"finished","steps":[],"attachments":[],"parameters":[],"start":1778058874396,"name":"GET \"admin/applications\"","uuid":"26a0d965-461f-42fc-a52a-7c8c8778bd86","stop":1778058874539},{"status":"passed","statusDetails":{},"stage":"finished","steps":[],"attachments":[],"parameters":[],"start":1778058874542,"name":"\n{\"success\":false,\"message\":\"You do not have permission to access this resource\"}","uuid":"6e28fb77-8454-44cc-a242-1ed8164b4169","stop":1778058874543},{"status":"passed","statusDetails":{},"stage":"finished","steps":[],"attachments":[],"parameters":[],"start":1778058874545,"name":"GET \"admin/applications\"","uuid":"3373d7ac-2ade-4509-bd57-a2d6f71b680c","stop":1778058874570},{"status":"passed","statusDetails":{},"stage":"finished","steps":[],"attachments":[],"parameters":[],"start":1778058874573,"name":"\n{\"success\":true,\"applications\":[{\"id\":\"18\",\"user_id\":\"4\",\"job_id\":\"49\",\"status\":\"applied\",\"applied_at\":\"2026-05-06T09:14:34.000Z\",\"updated_at\":\"2026-05-06T09:14:34.000Z\",\"users\":{\"name\":\"QA Candidate\",\"email\":\"qa.candidate@truehire.com\"},\"jobs\":{\"title\":\"QA Automation Engineer w5mn09\",\"company\":\"TrueHire QA Labs\",\"recruiters\":{\"name\":\"QA Recruiter\"}},\"job_title\":\"QA Automation Engineer w5mn09\",\"company\":\"TrueHire QA Labs\",\"user_name\":\"QA Candidate\",\"user_email\":\"qa.candidate@truehire.com\",\"recruiter_name\":\"QA Recruiter\"},{\"id\":\"19\",\"user_id\":\"4\",\"job_id\":\"50\",\"status\":\"applied\",\"applied_at\":\"2026-05-06T09:14:34.000Z\",\"updated_at\":\"2026-05-06T09:14:34.000Z\",\"users\":{\"name\":\"QA Candidate\",\"email\":\"qa.candidate@truehire.com\"},\"jobs\":{\"title\":\"QA Automation Engineer 1pasbt\",\"company\":\"TrueHire QA Labs\",\"recruiters\":{\"name\":\"QA Recruiter\"}},\"job_title\":\"QA Automation Engineer 1pasbt\",\"company\":\"TrueHire QA Labs\",\"user_name\":\"QA Candidate\",\"user_email\":\"qa.candidate@truehire.com\",\"recruiter_name\":\"QA Recruiter\"},{\"id\":\"16\",\"user_id\":\"4\",\"job_id\":\"39\",\"status\":\"applied\",\"applied_at\":\"2026-05-06T09:14:26.000Z\",\"updated_at\":\"2026-05-06T09:14:26.000Z\",\"users\":{\"name\":\"QA Candidate\",\"email\":\"qa.candidate@truehire.com\"},\"jobs\":{\"title\":\"QA Automation Engineer 3k36p7\",\"company\":\"TrueHire QA Labs\",\"recruiters\":{\"name\":\"QA Recruiter\"}},\"job_title\":\"QA Automation Engineer 3k36p7\",\"company\":\"TrueHire QA Labs\",\"user_name\":\"QA Candidate\",\"user_email\":\"qa.candidate@truehire.com\",\"recruiter_name\":\"QA Recruiter\"},{\"id\":\"17\",\"user_id\":\"4\",\"job_id\":\"42\",\"status\":\"applied\",\"applied_at\":\"2026-05-06T09:14:26.000Z\",\"updated_at\":\"2026-05-06T09:14:26.000Z\",\"users\":{\"name\":\"QA Candidate\",\"email\":\"qa.candidate@truehire.com\"},\"jobs\":{\"title\":\"QA Automation Engineer 77um56\",\"company\":\"TrueHire QA Labs\",\"recruiters\":{\"name\":\"QA Recruiter\"}},\"job_title\":\"QA Automation Engineer 77um56\",\"company\":\"TrueHire QA Labs\",\"user_name\":\"QA Candidate\",\"user_email\":\"qa.candidate@truehire.com\",\"recruiter_name\":\"QA Recruiter\"},{\"id\":\"14\",\"user_id\":\"4\",\"job_id\":\"30\",\"status\":\"applied\",\"applied_at\":\"2026-05-06T09:09:37.000Z\",\"updated_at\":\"2026-05-06T09:09:37.000Z\",\"users\":{\"name\":\"QA Candidate\",\"email\":\"qa.candidate@truehire.com\"},\"jobs\":{\"title\":\"QA Automation Engineer gnoefi\",\"company\":\"TrueHire QA Labs\",\"recruiters\":{\"name\":\"QA Recruiter\"}},\"job_title\":\"QA Automation Engineer gnoefi\",\"company\":\"TrueHire QA Labs\",\"user_name\":\"QA Candidate\",\"user_email\":\"qa.candidate@truehire.com\",\"recruiter_name\":\"QA Recruiter\"},{\"id\":\"15\",\"user_id\":\"4\",\"job_id\":\"33\",\"status\":\"applied\",\"applied_at\":\"2026-05-06T09:09:37.000Z\",\"updated_at\":\"2026-05-06T09:09:37.000Z\",\"users\":{\"name\":\"QA Candidate\",\"email\":\"qa.candidate@truehire.com\"},\"jobs\":{\"title\":\"QA Automation Engineer 3c82wc\",\"company\":\"TrueHire QA Labs\",\"recruiters\":{\"name\":\"QA Recruiter\"}},\"job_title\":\"QA Automation Engineer 3c82wc\",\"company\":\"TrueHire QA Labs\",\"user_name\":\"QA Candidate\",\"user_email\":\"qa.candidate@truehire.com\",\"recruiter_name\":\"QA Recruiter\"},{\"id\":\"12\",\"user_id\":\"4\",\"job_id\":\"22\",\"status\":\"applied\",\"applied_at\":\"2026-05-06T09:07:25.000Z\",\"updated_at\":\"2026-05-06T09:07:25.000Z\",\"users\":{\"name\":\"QA Candidate\",\"email\":\"qa.candidate@truehire.com\"},\"jobs\":{\"title\":\"QA Automation Engineer ax71rm\",\"company\":\"TrueHire QA Labs\",\"recruiters\":{\"name\":\"QA Recruiter\"}},\"job_title\":\"QA Automation Engineer ax71rm\",\"company\":\"TrueHire QA Labs\",\"user_name\":\"QA Candidate\",\"user_email\":\"qa.candidate@truehire.com\",\"recruiter_name\":\"QA Recruiter\"},{\"id\":\"13\",\"user_id\":\"4\",\"job_id\":\"24\",\"status\":\"applied\",\"applied_at\":\"2026-05-06T09:07:25.000Z\",\"updated_at\":\"2026-05-06T09:07:25.000Z\",\"users\":{\"name\":\"QA Candidate\",\"email\":\"qa.candidate@truehire.com\"},\"jobs\":{\"title\":\"QA Automation Engineer 2a0kc5\",\"company\":\"TrueHire QA Labs\",\"recruiters\":{\"name\":\"QA Recruiter\"}},\"job_title\":\"QA Automation Engineer 2a0kc5\",\"company\":\"TrueHire QA Labs\",\"user_name\":\"QA Candidate\",\"user_email\":\"qa.candidate@truehire.com\",\"recruiter_name\":\"QA Recruiter\"},{\"id\":\"10\",\"user_id\":\"4\",\"job_id\":\"14\",\"status\":\"applied\",\"applied_at\":\"2026-05-06T09:05:54.000Z\",\"updated_at\":\"2026-05-06T09:05:54.000Z\",\"users\":{\"name\":\"QA Candidate\",\"email\":\"qa.candidate@truehire.com\"},\"jobs\":{\"title\":\"QA Automation Engineer 0ul9jb\",\"company\":\"TrueHire QA Labs\",\"recruiters\":{\"name\":\"QA Recruiter\"}},\"job_title\":\"QA Automation Engineer 0ul9jb\",\"company\":\"TrueHire QA Labs\",\"user_name\":\"QA Candidate\",\"user_email\":\"qa.candidate@truehire.com\",\"recruiter_name\":\"QA Recruiter\"},{\"id\":\"11\",\"user_id\":\"4\",\"job_id\":\"15\",\"status\":\"applied\",\"applied_at\":\"2026-05-06T09:05:54.000Z\",\"updated_at\":\"2026-05-06T09:05:54.000Z\",\"users\":{\"name\":\"QA Candidate\",\"email\":\"qa.candidate@truehire.com\"},\"jobs\":{\"title\":\"QA Automation Engineer m82oc6\",\"company\":\"TrueHire QA Labs\",\"recruiters\":{\"name\":\"QA Recruiter\"}},\"job_title\":\"QA Automation Engineer m82oc6\",\"company\":\"TrueHire QA Labs\",\"user_name\":\"QA Candidate\",\"user_email\":\"qa.candidate@truehire.com\",\"recruiter_name\":\"QA Recruiter\"}],\"pagination\":{\"page\":1,\"limit\":10,\"total\":11,\"pages\":2}}","uuid":"fb99ae8a-7d0d-4607-aa5d-735b9164320c","stop":1778058874570},{"status":"passed","statusDetails":{},"stage":"finished","steps":[{"status":"passed","statusDetails":{},"stage":"finished","steps":[],"attachments":[],"parameters":[],"name":"Fixture \"adminToken\"","start":1778058874574,"uuid":"62e57003-8189-441c-8a55-5ada5767b581","stop":1778058874575},{"status":"passed","statusDetails":{},"stage":"finished","steps":[],"attachments":[],"parameters":[],"name":"Fixture \"candidateToken\"","start":1778058874575,"uuid":"19e9a741-4c30-42a5-be00-c0e8a96f4e2f","stop":1778058874575},{"status":"passed","statusDetails":{},"stage":"finished","steps":[],"attachments":[],"parameters":[],"name":"Fixture \"authApi\"","start":1778058874576,"uuid":"48b571ca-2ba5-4671-a201-54294fe11a68","stop":1778058874576},{"status":"passed","statusDetails":{},"stage":"finished","steps":[],"attachments":[],"parameters":[],"name":"Fixture \"applicationsApi\"","start":1778058874577,"uuid":"75510917-3128-4911-8925-14e9b8097879","stop":1778058874577},{"status":"passed","statusDetails":{},"stage":"finished","steps":[],"attachments":[],"parameters":[],"name":"Fixture \"apiClient\"","start":1778058874577,"uuid":"d75b9e69-a6dc-4eea-a182-b29c8c6f4b4f","stop":1778058874585}],"attachments":[],"parameters":[],"name":"After Hooks","start":1778058874574,"uuid":"9d268fae-5906-4338-a84d-f074037462da","stop":1778058874605}],"attachments":[],"parameters":[{"name":"Project","value":"api"}],"labels":[{"name":"language","value":"javascript"},{"name":"framework","value":"playwright"},{"name":"package","value":"api.applications-advanced.api.spec.js"},{"name":"titlePath","value":" > api > api\\applications-advanced.api.spec.js > Applications API Advanced Coverage"},{"name":"host","value":"DESKTOP-RH0M79P"},{"name":"thread","value":"pid-16576-worker-0"},{"name":"parentSuite","value":"api"},{"name":"suite","value":"api\\applications-advanced.api.spec.js"},{"name":"subSuite","value":"Applications API Advanced Coverage"}],"links":[],"start":1778058874152,"testCaseId":"dbecd50ca5ad3c18c7f55e62ed06aa06","fullName":"api/applications-advanced.api.spec.js:64:3","titlePath":["api","applications-advanced.api.spec.js","Applications API Advanced Coverage"],"stop":1778058874576}